<svg viewBox="0 0 28 26" fill="none" xmlns="http://www.w3.org/2000/svg">
<path d="M0 0V8.63281H9.29688V0H0ZM7.10938 6.60156H2.1875V2.03125H7.10938V6.60156Z" fill="#3B3B3B"/>
<path d="M5.74219 3.30078H3.55469V5.33203H5.74219V3.30078Z" fill="#3B3B3B"/>
<path d="M18.7031 0V8.63281H28V0H18.7031ZM25.8125 6.60156H20.8906V2.03125H25.8125V6.60156Z" fill="#3B3B3B"/>
<path d="M24.4453 3.30078H22.2578V5.33203H24.4453V3.30078Z" fill="#3B3B3B"/>
<path d="M0 17.3672V26H9.29688V17.3672H0ZM7.10938 23.9688H2.1875V19.3984H7.10938V23.9688Z" fill="#3B3B3B"/>
<path d="M5.74219 20.668H3.55469V22.6992H5.74219V20.668Z" fill="#3B3B3B"/>
<path d="M4.375 10.0039H2.1875V12.0352H4.375V10.0039Z" fill="#3B3B3B"/>
<path d="M6.5625 14.0664V12.0352H4.375V14.0664H6.50781V16.0977H8.69531V14.0664H6.5625Z" fill="#3B3B3B"/>
<path d="M17.5 3.91016H15.3125V5.94141H17.5V3.91016Z" fill="#3B3B3B"/>
<path d="M13.125 2.03125H10.9375V5.94141H13.125V2.03125Z" fill="#3B3B3B"/>
<path d="M15.3125 0H13.125V2.03125H15.3125V0Z" fill="#3B3B3B"/>
<path d="M13.125 5.94141V7.97266H10.9375V10.0039H15.3125V5.94141H13.125Z" fill="#3B3B3B"/>
<path d="M15.3125 18.0273V16.0469H13.125V12.0352H10.9375V16.0977H13.125V18.0781H15.3125V20.0586H19.6875V18.0273H15.3125Z" fill="#3B3B3B"/>
<path d="M17.5 10.0039H15.3125V14.0664H17.5V10.0039Z" fill="#3B3B3B"/>
<path d="M25.8125 11.9844V10.0039H21.8203V12.0352H19.6875V14.0664H21.875V16.0469H28V11.9844H25.8125ZM25.8125 14.0156H21.875V12.0352H25.8125V14.0156Z" fill="#3B3B3B"/>
<path d="M28 18.0273H25.8125V22.0898H28V18.0273Z" fill="#3B3B3B"/>
<path d="M19.6875 14.0664H17.5V16.0977H19.6875V14.0664Z" fill="#3B3B3B"/>
<path d="M21.875 20.0586H19.6875V22.0898H21.875V20.0586Z" fill="#3B3B3B"/>
<path d="M24.0625 18.0273H21.875V20.0586H24.0625V18.0273Z" fill="#3B3B3B"/>
<path d="M21.875 22.0898V26H24.0625V24.1211H25.8125V22.0898H21.875Z" fill="#3B3B3B"/>
<path d="M13.125 18.0781H10.9375V21.9375H13.125V18.0781Z" fill="#3B3B3B"/>
<path d="M17.5 23.9688V21.9375H13.125V26H15.3125V23.9688H17.4453V26H19.6328V23.9688H17.5Z" fill="#3B3B3B"/>
<path d="M10.9375 10.0039H6.5625V12.0352H10.9375V10.0039Z" fill="#3B3B3B"/>
<path d="M2.1875 12.0352H0V16.0977H2.1875V12.0352Z" fill="#3B3B3B"/>
</svg>
