<svg viewBox="0 0 34 34" fill="none" xmlns="http://www.w3.org/2000/svg">
<path d="M1.38709 10.5416L1.38709 10.5416C2.64188 7.45777 4.76671 4.82242 7.49247 2.96837C10.2182 1.11434 13.4226 0.125 16.7004 0.125C21.0957 0.125 25.3115 1.90237 28.4201 5.06683L28.5093 4.97923L28.4201 5.06683C31.529 8.23137 33.2758 12.5239 33.2758 17.0001C33.2758 20.3382 32.3033 23.6011 30.4818 26.3761C28.6601 29.1505 26.0712 31.3139 23.0428 32.5916C20.0144 33.8677 16.682 34.2013 13.4671 33.5514C10.2521 32.9 7.29893 31.2934 4.98067 28.9338C2.66237 26.5735 1.08332 23.5665 0.443533 20.2926C-0.196096 17.0188 0.132136 13.6253 1.38709 10.5416Z" fill="#464B4E" stroke="#E7E7E7" stroke-width="0.25"/>
<path d="M19.8131 22H22.6971L18.3571 12.2H15.6271L11.3011 22H14.1291L14.8991 20.096H19.0431L19.8131 22ZM15.7111 18.052L16.9711 14.916L18.2311 18.052H15.7111Z" fill="white"/>
</svg>
