<svg width="26" height="29" viewBox="0 0 26 29" fill="none" xmlns="http://www.w3.org/2000/svg">
<path d="M1.81247 10.8752C0.811988 10.8752 0 11.6872 0 12.6877V19.9376C0 20.9381 0.811988 21.7501 1.81247 21.7501C2.81296 21.7501 3.62495 20.9381 3.62495 19.9376V12.6877C3.62495 11.6872 2.81296 10.8752 1.81247 10.8752Z" fill="#8BC34A"/>
<path d="M23.5622 10.8752C22.5617 10.8752 21.7498 11.6872 21.7498 12.6877V19.9376C21.7498 20.9381 22.5617 21.7501 23.5622 21.7501C24.5627 21.7501 25.3747 20.9381 25.3747 19.9376V12.6877C25.3747 11.6872 24.5627 10.8752 23.5622 10.8752Z" fill="#8BC34A"/>
<path d="M5.4375 21.8551C5.4375 22.8556 6.24949 23.6675 7.24997 23.6675V27.1874C7.24997 28.1879 8.06196 28.9998 9.06245 28.9998C10.0629 28.9998 10.8749 28.1879 10.8749 27.1874V23.6675H14.4999V27.1874C14.4999 28.1879 15.3119 28.9998 16.3123 28.9998C17.3128 28.9998 18.1248 28.1879 18.1248 27.1874V23.6675C19.1253 23.6675 19.9373 22.8556 19.9373 21.8551V10.9802H5.4375V21.8551Z" fill="#8BC34A"/>
<path d="M17.2113 3.43867L18.8244 1.48301C19.1434 1.09695 19.0891 0.52602 18.703 0.207025C18.3151 -0.110158 17.746 -0.0575967 17.427 0.32846L15.6635 2.46537C14.7536 2.05394 13.7513 1.81288 12.6874 1.81288C11.609 1.81288 10.594 2.063 9.67507 2.48712L7.95865 0.341148C7.64509 -0.0485343 7.07598 -0.113783 6.68448 0.199775C6.2948 0.513333 6.23136 1.08245 6.54311 1.47394L8.13446 3.46404C6.50142 4.79259 5.4375 6.79356 5.4375 9.06278H19.9373C19.9373 6.77906 18.8607 4.76721 17.2113 3.43867ZM10.8749 6.34406C10.3747 6.34406 9.96869 5.93807 9.96869 5.43783C9.96869 4.93758 10.3747 4.53159 10.8749 4.53159C11.3752 4.53159 11.7812 4.93758 11.7812 5.43783C11.7812 5.93807 11.3752 6.34406 10.8749 6.34406ZM14.4999 6.34406C13.9996 6.34406 13.5936 5.93807 13.5936 5.43783C13.5936 4.93758 13.9996 4.53159 14.4999 4.53159C15.0001 4.53159 15.4061 4.93758 15.4061 5.43783C15.4061 5.93807 15.0001 6.34406 14.4999 6.34406Z" fill="#8BC34A"/>
</svg>
