<svg width="223" height="64" viewBox="0 0 223 64" fill="none" xmlns="http://www.w3.org/2000/svg">
<path d="M0 0.320284C0.253243 0.159625 0.498316 0.0942715 0.762451 0.0888254C5.60674 -0.0173731 10.451 -0.0146499 15.298 0.0261957C17.6371 0.0452569 19.9735 0.0724872 22.3099 0.181409C22.4161 0.186855 22.5223 0.20047 22.6285 0.208639C23.184 0.249484 23.2548 0.323007 23.2575 0.894845C23.2602 2.56134 23.2575 4.22512 23.2575 5.89162C23.2575 21.6362 23.2575 37.3781 23.2656 53.1227C23.2656 53.4631 23.1703 53.6755 22.9008 53.8906C19.1893 56.8724 15.4914 59.8677 11.7853 62.8549C11.3251 63.2252 10.8431 63.5656 10.3612 63.906C10.1025 64.0884 9.90642 64.0013 9.87919 63.68C9.84379 63.2579 9.82745 62.8331 9.82745 62.4083C9.82472 49.2996 9.82745 36.1882 9.82473 23.0794C9.82473 18.5674 9.81383 14.0553 9.81928 9.54594C9.81928 9.16199 9.71308 8.89241 9.41355 8.631C6.37464 5.97059 3.34934 3.29657 0.321319 0.625264C0.217843 0.527235 0.117091 0.429205 0 0.320284Z" fill="#08152D"/>
<path d="M38.5255 0.0171107C42.7189 0.0171107 46.1935 0.0143876 49.6681 0.0171107C51.0623 0.0171107 52.1815 0.812238 52.5437 2.05122C52.6308 2.34803 52.6499 2.65301 52.6499 2.96072C52.6471 8.34689 52.6281 13.7303 52.6608 19.1165C52.6717 20.7285 51.7104 21.9539 49.8451 22.1173C49.1617 22.1772 48.4755 22.1554 47.7892 22.1554C45.3657 22.1581 42.9422 22.1527 40.5215 22.1581C38.6426 22.1609 36.7637 22.1745 34.8848 22.1745C33.0059 22.1745 31.127 22.1663 29.2481 22.1527C28.954 22.15 28.6599 22.1037 28.3658 22.0982C28.039 22.0955 27.9111 21.9185 27.8893 21.6217C27.8784 21.4583 27.8566 21.2922 27.8566 21.1288C27.8539 14.2559 27.8593 7.38293 27.8457 0.509981C27.8457 0.155986 27.9356 0.0634021 28.2868 0.05251C31.9439 -0.0427964 35.5955 0.0579563 38.5255 0.0171107Z" fill="#08152D"/>
<path d="M39.3752 27.7907C42.8144 27.7907 46.2536 27.8152 49.6956 27.7798C51.3621 27.7607 52.6854 29.0869 52.6718 30.7343C52.6283 36.1559 52.6255 41.5774 52.6773 46.9963C52.6909 48.3878 51.4574 49.831 49.8235 49.8473C45.5919 49.8882 41.3603 49.8582 37.1314 49.8718C34.8849 49.88 32.6384 49.8773 30.3946 49.8718C29.6867 49.8691 28.9787 49.8364 28.2707 49.8255C28.0583 49.8228 27.9684 49.7656 27.9521 49.5233C27.9003 48.8289 27.9085 48.1318 27.8976 47.4347C27.835 43.9764 27.8377 40.5155 27.8486 37.0545C27.8568 34.7399 27.8894 32.428 27.9194 30.1134C27.9276 29.4654 27.963 28.8173 27.9793 28.1692C27.9848 27.9759 28.031 27.8697 28.2543 27.8506C28.513 27.8288 28.769 27.7907 29.0304 27.7907C32.4723 27.7907 35.9224 27.7907 39.3752 27.7907Z" fill="#08152D"/>
<path d="M67.496 41.8219C69.6526 44.4442 71.7521 47.0039 73.9033 49.618C73.7372 49.618 73.6473 49.618 73.5602 49.618C71.8229 49.618 70.0856 49.6152 68.3483 49.6234C68.1359 49.6234 68.0052 49.5553 67.8745 49.3947C65.8785 46.9548 63.8744 44.5204 61.8784 42.0806C61.7204 41.8873 61.5625 41.811 61.312 41.8165C60.5196 41.8328 59.7272 41.841 58.9375 41.8137C58.6053 41.8029 58.5018 41.8764 58.5045 42.2304C58.5236 44.5558 58.5045 46.884 58.5236 49.2095C58.5263 49.5635 58.4228 49.6316 58.0906 49.6261C56.8271 49.6044 55.5609 49.6125 54.2974 49.6234C54.0687 49.6261 54.0006 49.569 54.0006 49.3321C54.0061 42.7069 54.0061 36.0817 54.0006 29.4566C54.0006 29.1571 54.1558 28.9692 54.3464 28.7949C54.7957 28.3837 55.3512 28.2203 55.9421 28.2203C61.2738 28.2149 66.6028 28.2149 71.9345 28.2203C72.5663 28.2203 73.1436 28.4028 73.6147 28.8548C73.8134 29.0481 73.9088 29.2687 73.9088 29.5465C73.906 33.1953 73.9033 36.8442 73.9115 40.4931C73.9115 40.8852 73.71 41.133 73.4295 41.3454C72.9802 41.6885 72.4574 41.8165 71.9019 41.8192C70.5785 41.8246 69.2551 41.8219 67.9317 41.8219C67.8091 41.8219 67.6948 41.8219 67.496 41.8219Z" fill="#08152D"/>
<path d="M152.114 41.8219C154.268 44.4442 156.371 47.0011 158.478 49.5662C158.364 49.6479 158.269 49.618 158.179 49.618C156.441 49.6207 154.704 49.6153 152.967 49.6234C152.757 49.6234 152.624 49.5581 152.493 49.3974C150.497 46.9576 148.493 44.5232 146.497 42.0833C146.339 41.8927 146.181 41.8137 145.93 41.8192C145.127 41.8355 144.321 41.8464 143.521 41.8165C143.177 41.8029 143.123 41.9281 143.126 42.2304C143.137 44.5695 143.126 46.9058 143.139 49.2449C143.142 49.5662 143.049 49.6316 142.744 49.6261C141.467 49.6071 140.19 49.6125 138.916 49.6234C138.69 49.6261 138.616 49.5717 138.616 49.3348C138.622 42.7096 138.625 36.0845 138.616 29.4593C138.616 29.1598 138.772 28.9719 138.962 28.7976C139.411 28.3864 139.967 28.2231 140.558 28.2203C145.89 28.2149 151.219 28.2149 156.55 28.2203C157.182 28.2203 157.759 28.4001 158.23 28.8548C158.429 29.0454 158.524 29.2687 158.524 29.5465C158.522 33.1953 158.519 36.8442 158.527 40.4931C158.527 40.8852 158.326 41.133 158.045 41.3481C157.596 41.6912 157.073 41.8219 156.518 41.8246C155.194 41.8301 153.871 41.8274 152.547 41.8274C152.43 41.8219 152.313 41.8219 152.114 41.8219Z" fill="#08152D"/>
<path d="M117.483 38.9191C117.483 35.8012 117.488 32.6833 117.475 29.5655C117.472 29.2196 117.603 28.9827 117.845 28.7703C118.305 28.37 118.858 28.2148 119.449 28.2148C125.322 28.2094 131.199 28.2148 137.072 28.2067C137.323 28.2067 137.388 28.2775 137.386 28.5225C137.372 29.6689 137.369 30.8126 137.388 31.959C137.394 32.2531 137.317 32.3293 137.018 32.3293C132.16 32.3185 127.302 32.3266 122.444 32.313C122.085 32.313 121.973 32.3893 121.979 32.7678C122.003 34.2682 121.998 35.7685 121.981 37.2662C121.979 37.6039 122.038 37.7182 122.414 37.7182C127.261 37.7019 132.108 37.7128 136.953 37.6992C137.326 37.6992 137.396 37.8027 137.388 38.1485C137.366 39.2595 137.369 40.3678 137.386 41.4788C137.391 41.762 137.304 41.8273 137.032 41.8246C132.163 41.8164 127.291 41.8219 122.422 41.8082C122.066 41.8082 121.97 41.8927 121.979 42.2494C122.006 43.2052 122 44.1637 121.981 45.1195C121.976 45.4244 122.044 45.5116 122.365 45.5116C127.212 45.5007 132.059 45.5034 136.904 45.5034C136.974 45.5034 137.045 45.5116 137.116 45.5034C137.309 45.4789 137.386 45.5415 137.383 45.7539C137.375 46.9575 137.369 48.1638 137.386 49.3674C137.391 49.6697 137.217 49.6152 137.045 49.6152C133.712 49.6152 130.379 49.6152 127.046 49.6152C124.541 49.6152 122.033 49.6152 119.528 49.6152C118.896 49.6152 118.311 49.4709 117.823 49.0406C117.594 48.8364 117.472 48.6022 117.475 48.2727C117.488 45.1549 117.483 42.037 117.483 38.9191Z" fill="#08152D"/>
<path d="M159.758 39.3857C159.758 36.1153 159.763 32.8422 159.75 29.5718C159.747 29.2124 159.889 28.97 160.142 28.7522C160.588 28.3737 161.117 28.2185 161.683 28.2185C167.037 28.2103 172.39 28.213 177.746 28.2185C178.212 28.2185 178.65 28.3819 179.059 28.5997C179.467 28.8175 179.661 29.1525 179.661 29.6345C179.652 36.1643 179.652 42.6969 179.661 49.2267C179.661 49.5263 179.603 49.6325 179.274 49.627C178.032 49.6052 176.791 49.6025 175.552 49.627C175.189 49.6352 175.135 49.5154 175.138 49.1913C175.151 46.8522 175.138 44.5159 175.154 42.1768C175.157 41.8745 175.072 41.8146 174.784 41.8146C171.404 41.8255 168.022 41.8255 164.643 41.8146C164.33 41.8146 164.254 41.8909 164.256 42.2013C164.27 44.5268 164.256 46.855 164.273 49.1804C164.275 49.5399 164.177 49.6325 163.818 49.627C162.576 49.6025 161.337 49.6079 160.096 49.6243C159.807 49.6297 159.753 49.5372 159.753 49.2703C159.761 45.9754 159.758 42.6805 159.758 39.3857Z" fill="#08152D"/>
<path d="M75.1367 38.9167C75.1367 35.7988 75.1422 32.6809 75.1286 29.563C75.1286 29.2172 75.2593 28.9803 75.5016 28.7706C75.9537 28.3785 76.4928 28.2206 77.0728 28.2178C82.4154 28.2124 87.758 28.2124 93.1006 28.2178C93.6806 28.2178 94.2171 28.3867 94.6691 28.7788C94.9278 29.0021 95.0449 29.2662 95.0422 29.6147C95.0285 31.0906 95.0367 32.5665 95.0367 34.0451C95.0367 38.7233 95.0258 43.3988 95.0476 48.077C95.0503 48.6924 94.7808 49.0545 94.2906 49.3159C93.9121 49.5202 93.4955 49.6182 93.0652 49.6182C87.7335 49.6209 82.4045 49.6209 77.0728 49.6155C76.4955 49.6155 75.9537 49.4575 75.5016 49.0654C75.2593 48.8557 75.1259 48.6188 75.1286 48.273C75.1422 45.1524 75.1367 42.0345 75.1367 38.9167Z" fill="#08152D"/>
<path d="M180.894 39.3796C180.894 36.1092 180.9 32.8388 180.886 29.5685C180.886 29.2226 181.014 28.9857 181.256 28.7733C181.706 28.3812 182.248 28.2206 182.825 28.2178C188.167 28.2124 193.507 28.2124 198.85 28.2151C199.28 28.2151 199.694 28.3186 200.073 28.531C200.546 28.7951 200.81 29.1518 200.805 29.7482C200.783 33.2663 200.783 36.7845 200.805 40.3054C200.808 40.8691 200.568 41.2176 200.122 41.479C199.68 41.735 199.201 41.8249 198.695 41.8221C194.406 41.8194 190.114 41.8249 185.826 41.814C185.496 41.814 185.393 41.8766 185.395 42.2306C185.414 44.5697 185.398 46.906 185.414 49.2451C185.417 49.5692 185.322 49.6318 185.02 49.6264C183.767 49.61 182.514 49.61 181.262 49.6264C180.973 49.6291 180.889 49.5665 180.889 49.2642C180.9 45.9666 180.894 42.6744 180.894 39.3796Z" fill="#08152D"/>
<path d="M202.104 39.3821C202.104 36.1226 202.109 32.8631 202.096 29.6064C202.093 29.2197 202.237 28.9583 202.518 28.7295C202.962 28.3728 203.479 28.2203 204.032 28.2203C209.374 28.2149 214.714 28.2149 220.057 28.2176C220.487 28.2176 220.901 28.3211 221.28 28.5308C221.753 28.7949 222.018 29.1489 222.015 29.748C221.993 33.2661 221.993 36.7843 222.015 40.3052C222.018 40.8852 221.764 41.2365 221.301 41.4979C220.868 41.7429 220.397 41.8274 219.907 41.8274C215.629 41.8246 211.351 41.8274 207.073 41.8274C206.613 41.8274 206.613 41.8274 206.613 42.3039C206.613 44.6294 206.608 46.9576 206.619 49.283C206.621 49.5662 206.54 49.6343 206.265 49.6316C205.012 49.618 203.76 49.6153 202.507 49.6316C202.199 49.637 202.093 49.5744 202.096 49.2368C202.109 45.9473 202.104 42.6633 202.104 39.3821Z" fill="#08152D"/>
<path d="M116.244 28.215C114.934 29.7889 113.681 31.2975 112.426 32.8006C110.8 34.7503 109.172 36.7 107.538 38.6415C107.378 38.8348 107.348 38.9465 107.527 39.1589C110.348 42.5273 113.156 45.9038 115.969 49.2804C116.045 49.3703 116.116 49.4629 116.189 49.5554C116.118 49.6671 116.012 49.6153 115.931 49.6153C113.967 49.6181 112.007 49.6126 110.043 49.6235C109.815 49.6235 109.678 49.5446 109.54 49.3757C107.538 46.9713 105.526 44.5723 103.527 42.1651C103.331 41.9282 103.135 41.8057 102.814 41.822C102.272 41.852 101.727 41.8465 101.183 41.8247C100.91 41.8138 100.848 41.9037 100.848 42.1651C100.856 44.5151 100.848 46.8651 100.861 49.2151C100.864 49.5337 100.79 49.629 100.458 49.6235C99.1812 49.6017 97.9041 49.6099 96.6297 49.6208C96.4064 49.6235 96.3274 49.5745 96.3301 49.3322C96.3356 42.3884 96.3356 35.4447 96.3301 28.4982C96.3301 28.264 96.3955 28.2041 96.627 28.2041C97.915 28.215 99.203 28.2177 100.491 28.2014C100.782 28.1986 100.864 28.2694 100.861 28.569C100.85 31.4636 100.859 34.3554 100.845 37.25C100.842 37.5768 100.938 37.6476 101.253 37.6612C101.684 37.6803 101.959 37.5468 102.236 37.2092C104.652 34.2874 107.092 31.3873 109.518 28.4737C109.676 28.2858 109.831 28.2014 110.081 28.2041C112.007 28.215 113.935 28.2095 115.863 28.2095C115.963 28.215 116.067 28.215 116.244 28.215Z" fill="#08152D"/>
<path d="M63.9451 37.7098C62.2432 37.7098 60.5413 37.7043 58.8422 37.7152C58.5862 37.7179 58.5018 37.6635 58.5018 37.3885C58.5154 35.8064 58.5154 34.2243 58.5018 32.6422C58.499 32.3672 58.5862 32.3154 58.8422 32.3154C62.2459 32.3236 65.647 32.3236 69.0508 32.3154C69.3068 32.3154 69.3912 32.3672 69.3885 32.6422C69.3749 34.2243 69.3749 35.8064 69.3885 37.3885C69.3912 37.6635 69.3068 37.7152 69.0481 37.7152C67.3489 37.7043 65.647 37.7098 63.9451 37.7098Z" fill="white"/>
<path d="M148.55 37.7108C146.848 37.7108 145.146 37.7053 143.447 37.7162C143.21 37.7162 143.123 37.6699 143.123 37.4112C143.134 35.8183 143.134 34.2253 143.123 32.6296C143.12 32.3763 143.199 32.3192 143.442 32.3192C146.856 32.3273 150.271 32.3273 153.686 32.3192C153.923 32.3192 154.01 32.3654 154.007 32.6241C153.996 34.2171 153.996 35.8101 154.007 37.4058C154.01 37.659 153.933 37.7189 153.688 37.7162C151.976 37.708 150.263 37.7108 148.55 37.7108Z" fill="white"/>
<path d="M169.724 32.3247C171.426 32.3247 173.125 32.3301 174.827 32.3192C175.097 32.3165 175.157 32.3873 175.157 32.6514C175.143 34.2335 175.143 35.8156 175.157 37.3977C175.16 37.6754 175.072 37.719 174.819 37.719C171.418 37.7108 168.014 37.7108 164.613 37.719C164.338 37.719 164.259 37.6509 164.262 37.3705C164.276 35.7993 164.278 34.2308 164.262 32.6596C164.259 32.3628 164.363 32.3192 164.624 32.3192C166.321 32.3301 168.022 32.3247 169.724 32.3247Z" fill="white"/>
<path d="M90.5302 38.9144C90.5302 41.0029 90.5247 43.0942 90.5356 45.1828C90.5384 45.4496 90.4703 45.5123 90.2061 45.5123C86.8023 45.5014 83.4013 45.5041 79.9975 45.5123C79.7279 45.5123 79.6407 45.4551 79.6407 45.1692C79.6516 41.0002 79.6516 36.8339 79.6407 32.665C79.6407 32.3818 79.7224 32.3192 79.9947 32.3192C83.3985 32.3273 86.7996 32.3273 90.2034 32.3192C90.4648 32.3192 90.5384 32.3763 90.5356 32.6459C90.5247 34.7372 90.5302 36.8258 90.5302 38.9144Z" fill="white"/>
<path d="M190.839 32.3247C192.541 32.3247 194.243 32.3301 195.942 32.3193C196.198 32.3165 196.285 32.3683 196.282 32.646C196.269 34.2281 196.269 35.8102 196.282 37.3923C196.285 37.6673 196.2 37.719 195.945 37.719C192.541 37.7109 189.14 37.7109 185.736 37.719C185.483 37.719 185.393 37.67 185.395 37.395C185.409 35.8129 185.409 34.2308 185.395 32.6487C185.393 32.3737 185.477 32.3193 185.733 32.322C187.438 32.3301 189.137 32.3247 190.839 32.3247Z" fill="white"/>
<path d="M212.07 37.7109C210.368 37.7109 208.667 37.7054 206.967 37.7163C206.706 37.719 206.602 37.6727 206.605 37.3759C206.621 35.7938 206.619 34.2117 206.608 32.6297C206.605 32.3791 206.681 32.3165 206.924 32.3192C210.338 32.3274 213.753 32.3274 217.168 32.3192C217.402 32.3192 217.495 32.3601 217.492 32.6242C217.478 34.2172 217.481 35.8102 217.492 37.4059C217.495 37.6564 217.421 37.719 217.176 37.719C215.471 37.7081 213.769 37.7109 212.07 37.7109Z" fill="white"/>
</svg>
