<svg width="17" height="21" viewBox="0 0 17 21" fill="none" xmlns="http://www.w3.org/2000/svg">
<path d="M0 0.103362C0.0817264 0.051514 0.160817 0.0304233 0.246058 0.0286657C1.80941 -0.00560664 3.37275 -0.00472782 4.93698 0.00845386C5.69185 0.0146053 6.44584 0.0233931 7.19984 0.0585442C7.23411 0.0603018 7.26838 0.0646955 7.30265 0.0673319C7.48192 0.0805136 7.50477 0.104241 7.50565 0.288784C7.50653 0.826597 7.50565 1.36353 7.50565 1.90134C7.50565 6.98244 7.50565 12.0627 7.50829 17.1438C7.50829 17.2536 7.47753 17.3222 7.39053 17.3916C6.19275 18.3538 4.99937 19.3205 3.80335 20.2845C3.65484 20.404 3.4993 20.5139 3.34375 20.6237C3.26027 20.6826 3.197 20.6545 3.18821 20.5508C3.17679 20.4146 3.17151 20.2775 3.17151 20.1404C3.17063 15.91 3.17151 11.6786 3.17063 7.44819C3.17063 5.99206 3.16712 4.53592 3.16888 3.08066C3.16888 2.95676 3.1346 2.86976 3.03794 2.78539C2.05722 1.92683 1.0809 1.06387 0.103696 0.201785C0.0703023 0.170149 0.0377875 0.138513 0 0.103362Z" fill="white"/>
<path d="M12.433 0.00582115C13.7863 0.00582115 14.9076 0.00494237 16.0289 0.00582115C16.4789 0.00582115 16.84 0.262424 16.9569 0.662269C16.985 0.758056 16.9912 0.856479 16.9912 0.955781C16.9903 2.69401 16.9842 4.43135 16.9947 6.16958C16.9982 6.68981 16.688 7.08526 16.086 7.13799C15.8655 7.15732 15.644 7.15029 15.4226 7.15029C14.6405 7.15117 13.8583 7.14941 13.0771 7.15117C12.4708 7.15205 11.8644 7.15644 11.258 7.15644C10.6517 7.15644 10.0453 7.15381 9.43897 7.14941C9.34406 7.14854 9.24915 7.1336 9.15424 7.13184C9.04879 7.13096 9.00749 7.07384 9.00046 6.97805C8.99694 6.92532 8.98991 6.87172 8.98991 6.81899C8.98903 4.60096 8.99079 2.38292 8.98639 0.16488C8.98639 0.0506388 9.01539 0.0207603 9.12876 0.0172452C10.309 -0.0135121 11.4874 0.0190028 12.433 0.00582115Z" fill="white"/>
<path d="M12.7071 8.96854C13.817 8.96854 14.9269 8.97644 16.0377 8.96502C16.5755 8.95887 17.0026 9.38683 16.9982 9.91849C16.9841 11.6681 16.9833 13.4178 17 15.1666C17.0044 15.6156 16.6063 16.0814 16.079 16.0866C14.7134 16.0998 13.3478 16.0902 11.983 16.0946C11.258 16.0972 10.533 16.0963 9.80892 16.0946C9.58044 16.0937 9.35195 16.0831 9.12347 16.0796C9.05493 16.0787 9.02593 16.0603 9.02065 15.9821C9.00396 15.758 9.00659 15.533 9.00308 15.308C8.98287 14.192 8.98375 13.0751 8.98726 11.9581C8.9899 11.2112 9.00044 10.4651 9.01011 9.71813C9.01275 9.50898 9.02417 9.29983 9.02944 9.09069C9.0312 9.02829 9.04614 8.99402 9.1182 8.98787C9.20168 8.98084 9.28429 8.96854 9.36865 8.96854C10.4794 8.96854 11.5928 8.96854 12.7071 8.96854Z" fill="white"/>
</svg>
