<svg width="18" height="18" viewBox="0 0 18 18" fill="none" xmlns="http://www.w3.org/2000/svg">
<path d="M10.6317 9.00001L17.6617 1.96993C18.1127 1.51912 18.1128 0.789172 17.6618 0.338257C17.2109 -0.112694 16.481 -0.112799 16.0301 0.338222L9 7.3683L1.96994 0.338257C1.51913 -0.112659 0.78914 -0.112799 0.338226 0.338187C-0.112724 0.789102 -0.112759 1.51895 0.338226 1.9699L7.36822 9.00001L0.33819 16.0301C-0.111705 16.4799 -0.111705 17.2119 0.33819 17.6618C0.78907 18.1127 1.51899 18.1128 1.9699 17.6618L8.99993 10.6317L16.03 17.6617C16.4808 18.1126 17.2108 18.1127 17.6616 17.6617C18.1126 17.2108 18.1127 16.481 17.6617 16.0299L10.6317 9.00001Z" fill="#010B1E"/>
</svg>
