<svg width="18" height="18" viewBox="0 0 18 18" fill="none" xmlns="http://www.w3.org/2000/svg">
<path d="M17 0H5.00013C4.735 0.000289396 4.48082 0.105738 4.29335 0.29321C4.10587 0.480683 4.00042 0.734866 4.00014 0.999992V15.2264L1.72882 17.4729C1.69332 17.5227 1.67223 17.5814 1.66785 17.6424C1.66347 17.7035 1.67597 17.7646 1.70399 17.819C1.73201 17.8734 1.77446 17.9191 1.8267 17.951C1.87893 17.9829 1.93894 17.9998 2.00015 17.9999H17C17.2652 17.9996 17.5193 17.8941 17.7068 17.7066C17.8943 17.5192 17.9997 17.265 18 16.9999V0.999992C17.9997 0.734866 17.8943 0.480683 17.7068 0.29321C17.5193 0.105738 17.2652 0.000289396 17 0Z" fill="#EFF3FE"/>
<path d="M4.00018 8H1.0002C0.73499 8 0.480638 8.10536 0.293103 8.29289C0.105569 8.48043 0.000212611 8.73478 0.000212611 8.99999V15.9304C-0.00690784 16.4245 0.165033 16.9046 0.484281 17.2819C0.803529 17.6592 1.24852 17.9082 1.73707 17.983C2.01943 18.0201 2.30645 17.9965 2.57898 17.9139C2.85151 17.8312 3.10327 17.6914 3.31746 17.5037C3.53165 17.316 3.70334 17.0848 3.82107 16.8255C3.9388 16.5662 3.99986 16.2847 4.00018 15.9999V8Z" fill="#BCC2D7"/>
<path d="M10.6668 10.6666C13.06 10.6666 15.0001 8.72651 15.0001 6.3333C15.0001 3.94008 13.06 2 10.6668 2C8.27358 2 6.3335 3.94008 6.3335 6.3333C6.3335 8.72651 8.27358 10.6666 10.6668 10.6666Z" fill="#95D6A4"/>
<path d="M11.2254 6.04094C11.1698 6.02131 11.1129 5.99997 11.0563 5.97897V4.95403C11.1192 4.97784 11.1782 5.01075 11.2316 5.0517C11.297 5.11043 11.3831 5.1409 11.4709 5.13649C11.5587 5.13208 11.6413 5.09313 11.7005 5.02813C11.7597 4.96313 11.7909 4.87736 11.7872 4.78949C11.7835 4.70163 11.7452 4.61879 11.6806 4.55904C11.5001 4.4107 11.2856 4.30949 11.0563 4.26448V4.08492C11.0563 3.99651 11.0212 3.91173 10.9587 3.84922C10.8961 3.78671 10.8114 3.75159 10.723 3.75159C10.6345 3.75159 10.5498 3.78671 10.4873 3.84922C10.4247 3.91173 10.3896 3.99651 10.3896 4.08492V4.28837C10.1825 4.3396 9.99478 4.45025 9.84965 4.60671C9.70452 4.76317 9.60827 4.95863 9.57273 5.16906C9.53294 5.3451 9.54229 5.5287 9.59975 5.6998C9.65721 5.8709 9.76058 6.02292 9.89858 6.13926C10.0505 6.25382 10.2153 6.35013 10.3896 6.42621V7.79845C10.2351 7.77123 10.0892 7.70787 9.96384 7.61354C9.8899 7.5654 9.79989 7.54855 9.71354 7.56668C9.62719 7.58481 9.55156 7.63644 9.50322 7.71024C9.45487 7.78405 9.43777 7.87401 9.45565 7.96041C9.47353 8.04681 9.52494 8.12259 9.59861 8.17115C9.83087 8.33927 10.1041 8.44183 10.3896 8.46808V8.66657C10.3896 8.75497 10.4247 8.83976 10.4872 8.90227C10.5497 8.96478 10.6345 8.9999 10.7229 8.9999C10.8113 8.9999 10.8961 8.96478 10.9586 8.90227C11.0211 8.83976 11.0563 8.75497 11.0563 8.66657V8.43191C11.3019 8.36597 11.5236 8.23128 11.6953 8.04366C11.867 7.85603 11.9815 7.62329 12.0255 7.37279C12.0767 7.09148 12.0237 6.80117 11.8765 6.55607C11.7292 6.31098 11.4978 6.12786 11.2254 6.04094ZM10.2278 5.29241C10.2485 5.18393 10.3056 5.08575 10.3896 5.01408V5.66621C10.3203 5.63606 10.265 5.58067 10.2349 5.51126C10.2049 5.44185 10.2023 5.36362 10.2278 5.29241ZM11.3681 7.26228C11.3518 7.35641 11.3155 7.44596 11.2617 7.52492C11.2079 7.60389 11.1379 7.67045 11.0563 7.72015V6.69407C11.1671 6.73659 11.2592 6.81701 11.3163 6.92105C11.3734 7.02508 11.3918 7.14599 11.3681 7.26228Z" fill="#EFF3FE"/>
<path d="M14.6672 13.6665H6.66732C6.57891 13.6665 6.49413 13.6314 6.43161 13.5689C6.3691 13.5064 6.33398 13.4216 6.33398 13.3332C6.33398 13.2448 6.3691 13.16 6.43161 13.0975C6.49413 13.035 6.57891 12.9999 6.66732 12.9999H14.6672C14.7557 12.9999 14.8404 13.035 14.903 13.0975C14.9655 13.16 15.0006 13.2448 15.0006 13.3332C15.0006 13.4216 14.9655 13.5064 14.903 13.5689C14.8404 13.6314 14.7557 13.6665 14.6672 13.6665Z" fill="#546C8C"/>
<path d="M14.6668 15.9999H6.66683C6.57842 15.9999 6.49364 15.9648 6.43113 15.9023C6.36861 15.8398 6.3335 15.755 6.3335 15.6666C6.3335 15.5782 6.36861 15.4934 6.43113 15.4309C6.49364 15.3684 6.57842 15.3333 6.66683 15.3333H14.6668C14.7552 15.3333 14.84 15.3684 14.9025 15.4309C14.965 15.4934 15.0001 15.5782 15.0001 15.6666C15.0001 15.755 14.965 15.8398 14.9025 15.9023C14.84 15.9648 14.7552 15.9999 14.6668 15.9999Z" fill="#546C8C"/>
</svg>
