<svg width="358" height="41" viewBox="0 0 358 41" fill="none" xmlns="http://www.w3.org/2000/svg">
<path d="M152.115 8.27924L120.396 26.5082V30.4335L137.848 40.4499L155.353 30.3965V22.7382L137.874 32.9394L130.339 28.4895L155.353 14.0895V10.1419L152.115 8.27924Z" fill="#182542"/>
<path d="M120.396 10.1863L129.466 5.01929L135.874 8.83362L125.963 14.5108L129.71 17.771H120.396V10.1863Z" fill="#182542"/>
<path d="M133.132 2.7793L137.874 0L144.457 3.87358L139.637 6.63803L133.132 2.7793Z" fill="#182542"/>
<path d="M9.73582 29.5615C7.88137 29.5615 6.21238 29.1737 4.72883 28.3983C3.26213 27.6059 2.10732 26.5102 1.26439 25.1109C0.42146 23.7116 0 22.1269 0 20.3568C0 18.5866 0.42146 17.0019 1.26439 15.6026C2.10732 14.2033 3.26213 13.116 4.72883 12.3405C6.21238 11.5481 7.88137 11.152 9.73582 11.152C11.3542 11.152 12.8125 11.4386 14.1106 12.0118C15.4088 12.585 16.4877 13.4111 17.3475 14.49L14.1612 17.3728C13.0148 15.9904 11.624 15.2992 9.9887 15.2992C9.02776 15.2992 8.16797 15.51 7.40934 15.9314C6.66756 16.3528 6.08594 16.9514 5.66448 17.7268C5.25987 18.4855 5.05757 19.3621 5.05757 20.3568C5.05757 21.3515 5.25987 22.2365 5.66448 23.012C6.08594 23.7706 6.66756 24.3607 7.40934 24.7821C8.16797 25.2035 9.02776 25.4143 9.9887 25.4143C11.624 25.4143 13.0148 24.7231 14.1612 23.3407L17.3475 26.2235C16.4877 27.3024 15.4088 28.1286 14.1106 28.7017C12.8125 29.2749 11.3542 29.5615 9.73582 29.5615ZM28.5823 24.504H25.8513V29.2075H20.8443V11.506H28.9364C30.538 11.506 31.9288 11.7757 33.1089 12.3152C34.2891 12.8378 35.1994 13.5964 35.84 14.5911C36.4806 15.5689 36.8009 16.7238 36.8009 18.0556C36.8009 19.3368 36.4974 20.4579 35.8905 21.4188C35.3006 22.363 34.4491 23.1047 33.3365 23.6442L37.1549 29.2075H31.7939L28.5823 24.504ZM31.7433 18.0556C31.7433 17.2295 31.4821 16.5889 30.9594 16.1337C30.4368 15.6785 29.6614 15.4509 28.6329 15.4509H25.8513V20.6349H28.6329C29.6614 20.6349 30.4368 20.4158 30.9594 19.9774C31.4821 19.5223 31.7433 18.8816 31.7433 18.0556ZM50.0636 22.8603V29.2075H45.0566V22.7844L38.3048 11.506H43.5899L47.7877 18.536L51.9855 11.506H56.8408L50.0636 22.8603ZM67.3967 11.506C68.9983 11.506 70.3891 11.7757 71.5692 12.3152C72.7492 12.8378 73.6596 13.5964 74.3002 14.5911C74.9409 15.5689 75.2612 16.7238 75.2612 18.0556C75.2612 19.3873 74.9409 20.5422 74.3002 21.52C73.6596 22.4977 72.7492 23.2564 71.5692 23.7959C70.3891 24.3185 68.9983 24.5798 67.3967 24.5798H64.3115V29.2075H59.3046V11.506H67.3967ZM67.0932 20.6349C68.1215 20.6349 68.8971 20.4158 69.4197 19.9774C69.9423 19.5223 70.2036 18.8816 70.2036 18.0556C70.2036 17.2295 69.9423 16.5889 69.4197 16.1337C68.8971 15.6785 68.1215 15.4509 67.0932 15.4509H64.3115V20.6349H67.0932ZM82.2902 15.4762H76.8533V11.506H92.7088V15.4762H87.2972V29.2075H82.2902V15.4762ZM104.518 29.5615C102.647 29.5615 100.961 29.1654 99.4606 28.373C97.9771 27.5806 96.8054 26.4849 95.9456 25.0856C95.1027 23.6863 94.6812 22.1101 94.6812 20.3568C94.6812 18.6034 95.1027 17.0272 95.9456 15.6279C96.8054 14.2286 97.9771 13.1329 99.4606 12.3405C100.961 11.5481 102.647 11.152 104.518 11.152C106.39 11.152 108.067 11.5481 109.55 12.3405C111.051 13.1329 112.223 14.2286 113.065 15.6279C113.925 17.0272 114.355 18.6034 114.355 20.3568C114.355 22.1101 113.925 23.6863 113.065 25.0856C112.223 26.4849 111.051 27.5806 109.55 28.373C108.067 29.1654 106.39 29.5615 104.518 29.5615ZM104.518 25.4143C105.412 25.4143 106.221 25.2035 106.946 24.7821C107.671 24.3607 108.244 23.7706 108.665 23.012C109.087 22.2365 109.298 21.3515 109.298 20.3568C109.298 19.3621 109.087 18.4855 108.665 17.7268C108.244 16.9514 107.671 16.3528 106.946 15.9314C106.221 15.51 105.412 15.2992 104.518 15.2992C103.625 15.2992 102.815 15.51 102.091 15.9314C101.366 16.3528 100.792 16.9514 100.371 17.7268C99.9496 18.4855 99.7388 19.3621 99.7388 20.3568C99.7388 21.3515 99.9496 22.2365 100.371 23.012C100.792 23.7706 101.366 24.3607 102.091 24.7821C102.815 25.2035 103.625 25.4143 104.518 25.4143Z" fill="#182542"/>
<path d="M162.753 11.506H165.281V29.2075H162.753V11.506ZM187.068 11.506V29.2075H184.994L174.374 16.0072V29.2075H171.845V11.506H173.918L184.539 24.7062V11.506H187.068ZM196.16 13.706V19.8763H205.036V22.051H196.16V29.2075H193.632V11.506H206.124V13.706H196.16ZM210.947 11.506H213.476V27.0074H223.06V29.2075H210.947V11.506ZM234.264 29.4098C231.903 29.4098 230.066 28.7355 228.751 27.3868C227.436 26.038 226.779 24.0993 226.779 21.5705V11.506H229.308V21.4694C229.308 25.2626 230.968 27.1592 234.289 27.1592C235.908 27.1592 237.147 26.6955 238.007 25.7683C238.866 24.8242 239.296 23.3913 239.296 21.4694V11.506H241.749V21.5705C241.749 24.1161 241.092 26.0633 239.777 27.412C238.462 28.7438 236.623 29.4098 234.264 29.4098ZM261.044 27.0074V29.2075H248.198V11.506H260.69V13.706H250.726V19.1429H259.602V21.2924H250.726V27.0074H261.044ZM281.627 11.506V29.2075H279.553L268.932 16.0072V29.2075H266.404V11.506H268.477L279.098 24.7062V11.506H281.627ZM296.104 29.4098C294.334 29.4098 292.732 29.022 291.3 28.2465C289.883 27.4541 288.771 26.3752 287.962 25.0097C287.152 23.6273 286.748 22.0763 286.748 20.3567C286.748 18.6372 287.152 17.0946 287.962 15.7291C288.771 14.3467 289.892 13.2677 291.325 12.4922C292.757 11.6999 294.359 11.3037 296.13 11.3037C297.512 11.3037 298.776 11.5397 299.923 12.0117C301.07 12.4669 302.047 13.1497 302.856 14.0601L301.212 15.6532C299.881 14.2539 298.22 13.5543 296.231 13.5543C294.916 13.5543 293.727 13.8493 292.665 14.4394C291.603 15.0295 290.768 15.847 290.162 16.8923C289.571 17.9206 289.276 19.0755 289.276 20.3567C289.276 21.6379 289.571 22.8012 290.162 23.8465C290.768 24.8748 291.603 25.684 292.665 26.2741C293.727 26.8642 294.916 27.1592 296.231 27.1592C298.203 27.1592 299.863 26.4511 301.212 25.035L302.856 26.6281C302.047 27.5385 301.061 28.2297 299.897 28.7017C298.751 29.1737 297.486 29.4098 296.104 29.4098ZM320.574 27.0074V29.2075H307.728V11.506H320.22V13.706H310.257V19.1429H319.133V21.2924H310.257V27.0074H320.574ZM337.768 29.2075L333.95 23.7706C333.477 23.8043 333.107 23.8212 332.837 23.8212H328.463V29.2075H325.934V11.506H332.837C335.13 11.506 336.934 12.0539 338.249 13.1497C339.564 14.2455 340.221 15.7543 340.221 17.6762C340.221 19.0418 339.884 20.205 339.21 21.1659C338.535 22.1269 337.574 22.8265 336.327 23.2648L340.525 29.2075H337.768ZM332.761 21.6717C334.362 21.6717 335.585 21.3261 336.428 20.6349C337.27 19.9437 337.693 18.9574 337.693 17.6762C337.693 16.395 337.27 15.4171 336.428 14.7428C335.585 14.0516 334.362 13.706 332.761 13.706H328.463V21.6717H332.761ZM350.73 29.4098C349.398 29.4098 348.109 29.2075 346.861 28.8029C345.63 28.3814 344.661 27.8419 343.953 27.1844L344.888 25.212C345.562 25.8189 346.422 26.3162 347.468 26.704C348.53 27.0748 349.617 27.2603 350.73 27.2603C352.196 27.2603 353.293 27.0159 354.017 26.527C354.742 26.0212 355.105 25.3553 355.105 24.5292C355.105 23.9223 354.902 23.4334 354.498 23.0625C354.109 22.6747 353.621 22.3798 353.031 22.1775C352.458 21.9752 351.64 21.7476 350.578 21.4947C349.247 21.1744 348.167 20.854 347.341 20.5337C346.532 20.2135 345.833 19.7245 345.242 19.067C344.67 18.3927 344.383 17.4907 344.383 16.3612C344.383 15.4171 344.627 14.5658 345.116 13.8072C345.622 13.0485 346.38 12.4416 347.392 11.9865C348.403 11.5313 349.659 11.3037 351.16 11.3037C352.205 11.3037 353.233 11.4386 354.245 11.7083C355.256 11.978 356.125 12.3658 356.849 12.8715L356.015 14.8946C355.273 14.4226 354.481 14.0685 353.638 13.8325C352.795 13.5796 351.969 13.4531 351.16 13.4531C349.727 13.4531 348.647 13.7145 347.923 14.2371C347.215 14.7596 346.861 15.4341 346.861 16.2601C346.861 16.867 347.063 17.3643 347.468 17.7521C347.872 18.1229 348.369 18.418 348.96 18.6372C349.567 18.8395 350.385 19.0586 351.413 19.2946C352.744 19.6149 353.815 19.9353 354.624 20.2556C355.433 20.5758 356.125 21.0648 356.698 21.7223C357.288 22.3798 357.583 23.2648 357.583 24.3775C357.583 25.3047 357.33 26.1561 356.824 26.9316C356.318 27.6902 355.551 28.2971 354.523 28.7523C353.495 29.1907 352.231 29.4098 350.73 29.4098Z" fill="#182542"/>
</svg>
