<svg width="currentWidth" height="currentHeight" viewBox="0 0 387 254" fill="none" xmlns="http://www.w3.org/2000/svg">
<path d="M380.231 123.776L275.221 10.9154C274.318 9.94671 273.057 9.3988 271.747 9.3988H226.621C222.477 9.3988 220.324 14.3341 223.147 17.3652L321.735 123.24L325.237 127L321.735 130.761L223.147 236.636C220.324 239.667 222.477 244.602 226.621 244.602H271.747C273.066 244.602 274.321 244.056 275.215 243.093L275.219 243.087L380.231 130.225M380.233 123.778C381.922 125.597 381.922 128.404 380.233 130.223V123.778Z" stroke="currentColor" stroke-width="5"/>
<path d="M164.311 10.9242L269.323 123.778C271.014 125.597 271.014 128.413 269.32 130.231L269.318 130.234L164.304 243.099L164.298 243.103C163.405 244.066 162.151 244.613 160.831 244.613H115.705C111.561 244.613 109.408 239.677 112.231 236.646L168.442 176.285L177.087 167.002H164.394H16.0926C10.245 167.002 5.49622 162.259 5.49622 156.419V97.6113C5.49622 91.7709 10.245 87.028 16.0926 87.028H164.402H177.093L168.451 77.746L112.239 17.376C109.416 14.3449 111.569 9.40961 115.713 9.40961H160.838C162.158 9.40961 163.412 9.95617 164.307 10.9189L164.311 10.9242Z" stroke="currentColor" stroke-width="5"/>
</svg>
