<svg width="17" height="17" viewBox="0 0 17 17" fill="none" xmlns="http://www.w3.org/2000/svg">
<path d="M13.75 8.50002C13.4405 8.50002 13.1896 8.75089 13.1896 9.06038V14.6638C13.1896 14.9733 12.9388 15.2242 12.6293 15.2242H2.5431C2.23361 15.2242 1.98274 14.9733 1.98274 14.6638V3.45691C1.98274 3.14743 2.23361 2.89656 2.5431 2.89656H9.26724C9.57672 2.89656 9.82759 2.64568 9.82759 2.3362C9.82759 2.02672 9.57672 1.77588 9.26724 1.77588H2.5431C1.61468 1.77588 0.862061 2.5285 0.862061 3.45691V14.6638C0.862061 15.5922 1.61468 16.3448 2.5431 16.3448H12.6293C13.5577 16.3448 14.3103 15.5922 14.3103 14.6638V9.06034C14.3103 8.75089 14.0595 8.50002 13.75 8.50002Z" fill="#08152D"/>
<path d="M15.9238 1.28351C15.5215 0.881115 14.9758 0.655095 14.4068 0.65516C13.8374 0.653519 13.2911 0.879933 12.8899 1.28387L5.50902 8.66414C5.44779 8.72584 5.40159 8.80083 5.37398 8.88324L4.2533 12.2453C4.15549 12.5389 4.31424 12.8562 4.60786 12.954C4.66482 12.973 4.72448 12.9827 4.7845 12.9827C4.84465 12.9826 4.90444 12.973 4.96157 12.9542L8.32364 11.8335C8.40621 11.8059 8.48123 11.7595 8.54273 11.6979L15.9236 4.31703C16.7613 3.4794 16.7614 2.12124 15.9238 1.28351Z" fill="#08152D"/>
</svg>
