<svg width="18" height="13" viewBox="0 0 18 13" fill="none" xmlns="http://www.w3.org/2000/svg">
<path fill-rule="evenodd" clip-rule="evenodd" d="M2.06472 0H15.5545C16.693 0 17.6192 0.926302 17.6192 2.06486V10.8747C17.6192 12.0132 16.693 12.9395 15.5545 12.9395H2.06472C0.926207 12.9395 0 12.0132 0 10.8747V2.06486C0 0.926302 0.926207 0 2.06472 0ZM15.5545 11.5629C15.934 11.5629 16.2428 11.2542 16.2428 10.8747V2.48684L8.80959 8.01579L1.37649 2.48682V10.8747C1.37649 11.2542 1.68524 11.5629 2.06472 11.5629H15.5545ZM2.19025 1.37656L8.80959 6.30027L15.429 1.37656H2.19025Z" fill="#08152d"/>
</svg>
