<svg width="296" height="38" viewBox="0 0 296 38" fill="none" xmlns="http://www.w3.org/2000/svg">
<path d="M15.2256 36.9136C12.2368 36.8402 8.5546 37.1089 4.88983 36.8079C1.39934 36.5205 0.115923 35.064 0.0350092 31.5328C-0.021008 29.055 0.0188262 26.5761 0.0175815 24.0971C0.0163364 21.526 0.0275401 18.9563 0.0113571 16.3853C0.00637781 15.6154 0.0885357 14.8553 0.225467 14.1053C0.637504 11.8515 2.10391 10.5952 4.63838 10.5044C7.42182 10.4037 10.2115 10.4223 12.9974 10.4186C16.0298 10.4149 19.0634 10.3825 22.0921 10.4771C25.0909 10.5716 26.7316 12.1774 26.8187 15.1974C26.9245 18.8357 26.8473 22.4801 26.8709 26.1208C26.8735 26.5761 26.7204 26.6768 26.2934 26.6756C21.2095 26.6631 16.1244 26.6594 11.0405 26.6793C10.5152 26.6818 10.4517 26.4678 10.458 26.0313C10.4778 24.4703 10.4952 22.9092 10.4517 21.3495C10.4343 20.7338 10.6347 20.5895 11.2235 20.5957C14.1327 20.6243 17.043 20.5907 19.9523 20.6231C20.5759 20.6292 20.8199 20.4925 20.7763 19.8258C20.7178 18.9115 20.7439 17.9899 20.7689 17.0731C20.7813 16.6167 20.6618 16.4176 20.1589 16.4189C15.6875 16.4338 11.2148 16.4326 6.74338 16.4201C6.27034 16.4189 6.10478 16.5607 6.10602 17.047C6.12096 21.4539 6.12843 25.8608 6.10105 30.2665C6.09607 30.973 6.50437 30.871 6.92886 30.871C13.2999 30.8698 19.6709 30.8847 26.0407 30.8511C26.8486 30.8474 27.1473 31.0091 27.0963 31.8773C27.0141 33.2492 27.039 34.6311 27.0888 36.0068C27.1149 36.7009 26.9519 36.9434 26.1975 36.9335C22.7705 36.8887 19.3397 36.9136 15.2256 36.9136Z" fill="white"/>
<path d="M12.4209 0.021443C16.0048 0.021443 19.5899 0.0164677 23.1737 0.0226869C31.0473 0.0363691 37.3374 6.32272 37.3412 14.1837C37.3449 21.4689 37.3274 28.7541 37.3635 36.0392C37.3672 36.8316 37.1407 36.997 36.4013 36.9647C34.9635 36.9025 33.5207 36.9074 32.0829 36.9634C31.3996 36.9907 31.2228 36.8104 31.2253 36.1163C31.2539 28.9233 31.244 21.7301 31.2414 14.537C31.2403 9.49452 27.8194 6.08017 22.7717 6.08017C15.4807 6.07893 8.18851 6.06773 0.897586 6.09759C0.160648 6.10008 -0.023586 5.89609 0.00504506 5.18834C0.0610624 3.7828 0.0647973 2.37105 0.00380048 0.965517C-0.028565 0.22792 0.134508 -0.00965272 0.931199 0.000298004C4.76153 0.0488076 8.59062 0.021443 12.4209 0.021443Z" fill="white"/>
<path d="M63.9584 11.0462V26.8L51.0589 11.0462H46.0918V36.9936H52.0226V21.2398L64.9593 36.9936H69.8893V11.0462H63.9584ZM93.5614 31.211C92.0417 32.0265 90.5219 32.3231 88.8909 32.3231C83.9238 32.3231 80.4765 28.8758 80.4765 24.0199C80.4765 19.0899 83.9238 15.7167 88.965 15.7167C91.5969 15.7167 93.7838 16.6434 95.6743 18.6451L99.5293 15.0866C97.0087 12.1582 93.2278 10.6014 88.6685 10.6014C80.4024 10.6014 74.3974 16.1986 74.3974 24.0199C74.3974 31.8412 80.4024 37.4384 88.5573 37.4384C92.2641 37.4384 96.1932 36.2893 99.0475 34.1394V23.6121H93.5614V31.211ZM124.012 36.9936H130.313L118.711 11.0462H112.78L101.215 36.9936H107.368L109.667 31.4334H121.714L124.012 36.9936ZM111.594 26.8741L115.709 16.94L119.823 26.8741H111.594ZM150.176 31.211C148.657 32.0265 147.137 32.3231 145.506 32.3231C140.539 32.3231 137.092 28.8758 137.092 24.0199C137.092 19.0899 140.539 15.7167 145.58 15.7167C148.212 15.7167 150.399 16.6434 152.289 18.6451L156.144 15.0866C153.624 12.1582 149.843 10.6014 145.283 10.6014C137.017 10.6014 131.012 16.1986 131.012 24.0199C131.012 31.8412 137.017 37.4384 145.172 37.4384C148.879 37.4384 152.808 36.2893 155.662 34.1394V23.6121H150.176V31.211ZM167.208 32.1748V26.1698H179.255V21.4993H167.208V15.865H180.849V11.0462H161.24V36.9936H181.331V32.1748H167.208ZM215.356 36.9936L215.281 11.0462H210.351L200.788 27.1706L191.076 11.0462H186.109V36.9936H191.743V21.7588L199.342 34.2506H202.048L209.684 21.4251L209.721 36.9936H215.356ZM227.48 32.1748V26.1698H239.527V21.4993H227.48V15.865H241.121V11.0462H221.512V36.9936H241.602V32.1748H227.48ZM264.247 11.0462V26.8L251.348 11.0462H246.38V36.9936H252.311V21.2398L265.248 36.9936H270.178V11.0462H264.247ZM281.692 36.9936H287.697V15.9391H296V11.0462H273.389V15.9391H281.692V36.9936Z" fill="white"/>
</svg>
