<svg width="40" height="38" viewBox="0 0 40 38" fill="none" xmlns="http://www.w3.org/2000/svg">
<path d="M29.3543 37.0092L27.2809 34.9357L21.5692 36.0781H11.2882L4.97323 29.7631C4.3294 29.1193 4.34263 28.0671 5.013 27.44C5.65426 26.8402 6.66694 26.8875 7.2878 27.5084L11.2883 31.5089L18.7134 29.7954L20.998 27.5108C23.5216 24.9872 27.6131 24.9872 30.1366 27.5108L34.4947 31.8689C34.9268 32.301 34.9268 33.0015 34.4947 33.4336L30.919 37.0094C30.4869 37.4413 29.7864 37.4413 29.3543 37.0092Z" fill="#FDE5A2"/>
<path d="M12.6081 29.728L18.692 29.7737V33.0048L12.5839 32.9588C11.6917 32.9521 10.9739 32.2234 10.9806 31.3312C10.9873 30.4392 11.7159 29.7213 12.6081 29.728Z" fill="#FDE5A2"/>
<path d="M18.6918 31.6752V33.0047L12.5837 32.9588C11.8096 32.9529 11.1676 32.4033 11.0154 31.6752H18.6918Z" fill="#F2C127"/>
<path d="M4.97489 27.4799L11.8595 34.3646H22.1405L27.971 32.7744C28.2507 32.6982 28.5497 32.7775 28.7547 32.9825L31.8502 36.078L30.9191 37.0091C30.487 37.4411 29.7865 37.4411 29.3544 37.0091L27.281 34.9356L21.5693 36.078H11.2883L4.97326 29.763C4.34251 29.1323 4.3443 28.1109 4.97489 27.4799Z" fill="#FDD042"/>
<path d="M39.0984 22.7715H0.751703C0.336546 22.7715 0 22.4349 0 22.0198V0.751703C0 0.336546 0.336624 0 0.751703 0H39.0983C39.5135 0 39.85 0.336624 39.85 0.751703V22.0197C39.8501 22.435 39.5135 22.7715 39.0984 22.7715Z" fill="#AFF0E8"/>
<path d="M2.8464 22.7715H0.751703C0.336546 22.7715 0 22.4349 0 22.0198V0.751703C0 0.336546 0.336624 0 0.751703 0H2.8464V22.7715Z" fill="#74DBC9"/>
<path d="M32.7339 2.84651H7.11611C7.11611 5.20459 5.20455 7.11615 2.84647 7.11615V15.6554C5.20455 15.6554 7.11611 17.567 7.11611 19.9251H32.734C32.734 17.567 34.6456 15.6554 37.0037 15.6554V7.11615C34.6455 7.11615 32.7339 5.20459 32.7339 2.84651ZM9.96251 13.5206C8.78343 13.5206 7.82765 12.5648 7.82765 11.3857C7.82765 10.2066 8.78343 9.25085 9.96251 9.25085C11.1416 9.25085 12.0974 10.2066 12.0974 11.3857C12.0974 12.5649 11.1416 13.5206 9.96251 13.5206ZM29.8875 13.5206C28.7085 13.5206 27.7527 12.5648 27.7527 11.3857C27.7527 10.2066 28.7085 9.25085 29.8875 9.25085C31.0666 9.25085 32.0224 10.2066 32.0224 11.3857C32.0224 12.5649 31.0666 13.5206 29.8875 13.5206Z" fill="#2DB59F"/>
<path d="M21.3483 10.7631H20.5477V7.1161H22.7714C23.14 7.1161 23.4385 6.81746 23.4385 6.449C23.4385 6.08055 23.1399 5.7819 22.7714 5.7819H20.5477V4.98124C20.5477 4.61271 20.249 4.31414 19.8806 4.31414C19.5121 4.31414 19.2135 4.61279 19.2135 4.98124V5.78183H18.5019C17.3492 5.78183 16.367 6.67511 16.367 7.82772V9.96258C16.367 11.1152 17.3492 12.0974 18.5019 12.0974H19.2135V15.7444H17.0786C16.7101 15.7444 16.4115 16.0431 16.4115 16.4115C16.4115 16.78 16.7102 17.0786 17.0786 17.0786H19.2135V17.7902C19.2135 18.1588 19.5121 18.4573 19.8806 18.4573C20.249 18.4573 20.5477 18.1588 20.5477 17.7902V17.0786H21.3483C22.5009 17.0786 23.3942 16.0965 23.3942 14.9438V12.809C23.3941 11.6563 22.5009 10.7631 21.3483 10.7631ZM18.5018 10.7631C18.0848 10.7631 17.7012 10.3794 17.7012 9.9625V7.82772C17.7012 7.41077 18.0848 7.1161 18.5018 7.1161H19.2134V10.7631H18.5018ZM22.0599 14.9438C22.0599 15.3607 21.7652 15.7443 21.3483 15.7443H20.5477V12.0974H21.3483C21.7652 12.0974 22.0599 12.392 22.0599 12.809V14.9438Z" fill="#AFF0E8"/>
<path d="M31.3108 7.07156H28.4644C28.0959 7.07156 27.7973 6.77292 27.7973 6.40446C27.7973 6.03592 28.0959 5.73736 28.4644 5.73736H31.3108C31.6793 5.73736 31.9779 6.036 31.9779 6.40446C31.9779 6.77299 31.6793 7.07156 31.3108 7.07156Z" fill="#74DBC9"/>
<path d="M31.3108 17.0341H28.4644C28.0959 17.0341 27.7973 16.7355 27.7973 16.367C27.7973 15.9985 28.0959 15.6999 28.4644 15.6999H31.3108C31.6793 15.6999 31.9779 15.9985 31.9779 16.367C31.9779 16.7355 31.6793 17.0341 31.3108 17.0341Z" fill="#74DBC9"/>
<path d="M11.3858 7.07156H8.53935C8.17082 7.07156 7.87225 6.77292 7.87225 6.40446C7.87225 6.03593 8.1709 5.73736 8.53935 5.73736H11.3858C11.7543 5.73736 12.0529 6.036 12.0529 6.40446C12.0529 6.773 11.7543 7.07156 11.3858 7.07156Z" fill="#74DBC9"/>
<path d="M11.3858 17.0341H8.53935C8.17082 17.0341 7.87225 16.7355 7.87225 16.367C7.87225 15.9985 8.1709 15.6999 8.53935 15.6999H11.3858C11.7543 15.6999 12.0529 15.9985 12.0529 16.367C12.0529 16.7355 11.7543 17.0341 11.3858 17.0341Z" fill="#74DBC9"/>
</svg>
