<svg width="30" height="27" viewBox="0 0 30 27" fill="none" xmlns="http://www.w3.org/2000/svg">
<path d="M28.6766 15.0579H1.24681C0.558567 15.0579 0 14.36 0 13.5002C0 12.6403 0.558567 11.9425 1.24681 11.9425H28.6766C29.3648 11.9425 29.9234 12.6403 29.9234 13.5002C29.9234 14.36 29.3648 15.0579 28.6766 15.0579Z" fill="white"/>
<path d="M28.6766 3.1154H1.24681C0.558567 3.1154 0 2.41755 0 1.5577C0 0.697846 0.558567 0 1.24681 0H28.6766C29.3648 0 29.9234 0.697846 29.9234 1.5577C29.9234 2.41755 29.3648 3.1154 28.6766 3.1154Z" fill="white"/>
<path d="M28.6766 27H1.24681C0.558567 27 0 26.3022 0 25.4423C0 24.5825 0.558567 23.8846 1.24681 23.8846H28.6766C29.3648 23.8846 29.9234 24.5825 29.9234 25.4423C29.9234 26.3022 29.3648 27 28.6766 27Z" fill="white"/>
</svg>
