<svg width="228" height="37" viewBox="0 0 228 37" fill="none" xmlns="http://www.w3.org/2000/svg">
<path d="M27.1911 5.43821L24.9251 11.1189L22.6592 5.43821V0H0V36.2547H11.7828V32.6293H3.62547V3.62547H19.0337V30.8165H22.6592V14.3624L24.9251 19.9401L27.1911 14.3624V30.8165H30.8165V5.43821H27.1911Z" fill="#08152D"/>
<path d="M9.06371 30.8165V14.3624L11.3296 19.9401L13.5955 14.3624V36.2547H36.2548V0H24.472V3.62547H32.6293V32.6293H17.221V5.43821H13.5955L11.3296 11.1189L9.06371 5.43821H5.43823V30.8165H9.06371Z" fill="#08152D"/>
<path d="M59.1657 25.0762V29.0038H42.7906V7.85519H58.7729V11.7828H47.6548V16.3751H57.4738V20.1818H47.6548V25.0762H59.1657ZM77.6877 29.0038L72.5818 21.6622L67.5665 29.0038H61.947L69.772 18.2482L62.3398 7.85519H67.8989L72.763 14.7134L77.5366 7.85519H82.8237L75.4519 18.0669L83.3373 29.0038H77.6877ZM96.7963 29.3663C94.6412 29.3663 92.6874 28.9031 90.9351 27.9766C89.203 27.0299 87.8333 25.7308 86.8263 24.0792C85.8393 22.4074 85.3459 20.5242 85.3459 18.4295C85.3459 16.3348 85.8393 14.4616 86.8263 12.81C87.8333 11.1383 89.203 9.83913 90.9351 8.91262C92.6874 7.96597 94.6512 7.49265 96.8265 7.49265C98.6594 7.49265 100.311 7.81491 101.781 8.45944C103.272 9.10397 104.521 10.0305 105.528 11.239L102.386 14.1393C100.956 12.4877 99.1831 11.6619 97.0682 11.6619C95.759 11.6619 94.5908 11.954 93.5636 12.5381C92.5364 13.1021 91.7307 13.8976 91.1466 14.9249C90.5827 15.9521 90.3007 17.1203 90.3007 18.4295C90.3007 19.7387 90.5827 20.9069 91.1466 21.9341C91.7307 22.9613 92.5364 23.767 93.5636 24.3511C94.5908 24.9151 95.759 25.197 97.0682 25.197C99.1831 25.197 100.956 24.3612 102.386 22.6894L105.528 25.5898C104.521 26.8184 103.272 27.755 101.781 28.3995C100.291 29.0441 98.6292 29.3663 96.7963 29.3663ZM129.74 7.85519V29.0038H124.845V20.3329H115.238V29.0038H110.343V7.85519H115.238V16.1938H124.845V7.85519H129.74ZM150.182 24.4719H140.363L138.49 29.0038H133.474L142.901 7.85519H147.735L157.191 29.0038H152.055L150.182 24.4719ZM148.641 20.7558L145.287 12.6589L141.934 20.7558H148.641ZM180.292 7.85519V29.0038H176.274L165.73 16.1636V29.0038H160.896V7.85519H164.944L175.458 20.6954V7.85519H180.292ZM201.097 18.0972H205.568V26.6774C204.42 27.5435 203.091 28.2082 201.58 28.6715C200.07 29.1347 198.549 29.3663 197.018 29.3663C194.823 29.3663 192.849 28.9031 191.097 27.9766C189.344 27.0299 187.965 25.7308 186.958 24.0792C185.971 22.4074 185.477 20.5242 185.477 18.4295C185.477 16.3348 185.971 14.4616 186.958 12.81C187.965 11.1383 189.354 9.83913 191.127 8.91262C192.899 7.96597 194.893 7.49265 197.109 7.49265C198.962 7.49265 200.644 7.80484 202.154 8.42923C203.665 9.05361 204.934 9.95998 205.961 11.1483L202.819 14.0487C201.308 12.4575 199.486 11.6619 197.351 11.6619C196.001 11.6619 194.803 11.9439 193.755 12.5079C192.708 13.0718 191.892 13.8674 191.308 14.8947C190.724 15.9219 190.432 17.1002 190.432 18.4295C190.432 19.7387 190.724 20.9069 191.308 21.9341C191.892 22.9613 192.698 23.767 193.725 24.3511C194.773 24.9151 195.961 25.197 197.29 25.197C198.7 25.197 199.969 24.8949 201.097 24.2907V18.0972ZM228 25.0762V29.0038H211.625V7.85519H227.607V11.7828H216.489V16.3751H226.308V20.1818H216.489V25.0762H228Z" fill="#08152D"/>
</svg>
