<svg width="23" height="23" viewBox="0 0 23 23" fill="none" xmlns="http://www.w3.org/2000/svg">
<path d="M23 11.5C23 11.805 22.8788 12.0975 22.6632 12.3132C22.4475 12.5288 22.155 12.65 21.85 12.65H12.65V21.85C12.65 22.155 12.5288 22.4475 12.3132 22.6632C12.0975 22.8788 11.805 23 11.5 23C11.195 23 10.9025 22.8788 10.6868 22.6632C10.4712 22.4475 10.35 22.155 10.35 21.85V12.65H1.15C0.845001 12.65 0.552494 12.5288 0.336827 12.3132C0.12116 12.0975 0 11.805 0 11.5C0 11.195 0.12116 10.9025 0.336827 10.6868C0.552494 10.4712 0.845001 10.35 1.15 10.35H10.35V1.15C10.35 0.845001 10.4712 0.552494 10.6868 0.336827C10.9025 0.12116 11.195 0 11.5 0C11.805 0 12.0975 0.12116 12.3132 0.336827C12.5288 0.552494 12.65 0.845001 12.65 1.15V10.35H21.85C22.155 10.35 22.4475 10.4712 22.6632 10.6868C22.8788 10.9025 23 11.195 23 11.5Z" fill="#383C41"/>
</svg>
