<svg width="23" height="19" viewBox="0 0 23 19" fill="none" xmlns="http://www.w3.org/2000/svg">
<path d="M21.5909 1.72727H9.5C9.5 0.774682 8.72532 0 7.77273 0H6.04545C5.09286 0 4.31818 0.774682 4.31818 1.72727H0.863636C0.386909 1.72727 0 2.11332 0 2.59091C0 3.0685 0.386909 3.45455 0.863636 3.45455H4.31818C4.31818 4.40714 5.09286 5.18182 6.04545 5.18182H7.77273C8.72532 5.18182 9.5 4.40714 9.5 3.45455H21.5909C22.0676 3.45455 22.4545 3.0685 22.4545 2.59091C22.4545 2.11332 22.0676 1.72727 21.5909 1.72727ZM6.04545 3.45455V1.72727H7.77273L7.77359 2.58745C7.77359 2.58918 7.77273 2.59005 7.77273 2.59091C7.77273 2.59177 7.77359 2.59264 7.77359 2.59436V3.45455H6.04545Z" fill="#383C41"/>
<path d="M21.5909 8.63636H16.4091C16.4091 7.68377 15.6344 6.90909 14.6818 6.90909H12.9545C12.002 6.90909 11.2273 7.68377 11.2273 8.63636H0.863636C0.386909 8.63636 0 9.02241 0 9.5C0 9.97759 0.386909 10.3636 0.863636 10.3636H11.2273C11.2273 11.3162 12.002 12.0909 12.9545 12.0909H14.6818C15.6344 12.0909 16.4091 11.3162 16.4091 10.3636H21.5909C22.0676 10.3636 22.4545 9.97759 22.4545 9.5C22.4545 9.02241 22.0676 8.63636 21.5909 8.63636ZM12.9545 10.3636V8.63636H14.6818L14.6827 9.49654C14.6827 9.49827 14.6818 9.49913 14.6818 9.5C14.6818 9.50086 14.6827 9.50172 14.6827 9.50345V10.3636H12.9545Z" fill="#383C41"/>
<path d="M21.5909 15.5454H9.5C9.5 14.5929 8.72532 13.8182 7.77273 13.8182H6.04545C5.09286 13.8182 4.31818 14.5929 4.31818 15.5454H0.863636C0.386909 15.5454 0 15.9315 0 16.4091C0 16.8867 0.386909 17.2727 0.863636 17.2727H4.31818C4.31818 18.2253 5.09286 19 6.04545 19H7.77273C8.72532 19 9.5 18.2253 9.5 17.2727H21.5909C22.0676 17.2727 22.4545 16.8867 22.4545 16.4091C22.4545 15.9315 22.0676 15.5454 21.5909 15.5454ZM6.04545 17.2727V15.5454H7.77273L7.77359 16.4056C7.77359 16.4074 7.77273 16.4082 7.77273 16.4091C7.77273 16.4099 7.77359 16.4108 7.77359 16.4125V17.2727H6.04545Z" fill="#383C41"/>
</svg>
