<svg width="135" height="136" viewBox="0 0 135 136" fill="none" xmlns="http://www.w3.org/2000/svg">
<rect x="-0.25" y="0.25" width="134.5" height="134.5" transform="matrix(1 0 0 -1 0.5 135.5)" fill="white" stroke="#E5E5E5" stroke-width="0.5"/>
<path d="M100.388 111.364C95.1605 107.254 88.1611 101.705 88.0225 101.349H68.0101H47.9976C47.859 101.705 40.8594 107.254 35.632 111.364C32.0765 114.16 30 118.432 30 122.955V133.778C30 134.68 30.7326 135.411 31.6352 135.409L68.0101 135.331L104.385 135.409C105.287 135.411 106.02 134.68 106.02 133.778V122.955C106.02 118.432 103.944 114.16 100.388 111.364Z" fill="#7CA1B1"/>
<path d="M56.6958 79.1406H79.181V114.44H56.6958V79.1406Z" fill="#FFBD86"/>
<path d="M56.6958 97.6258C60.2046 99.1457 64.0716 99.9901 68.1326 99.9901C72.0442 99.9901 75.7759 99.2067 79.181 97.7908V79.1406H56.6958V97.6258Z" fill="#F6A96C"/>
<path d="M57.7708 104.015L66.8019 110.479C67.5245 110.997 68.4962 110.997 69.2188 110.479L78.2499 104.015H81.9233L68.0103 135.33L53.9531 109.954L57.7708 104.015Z" fill="#FFF9E2"/>
<path d="M75.9131 94.1606L74.2464 92.3065L78.2496 88.2999L81.3058 91.0065C86.4339 96.2684 89.5672 103.153 90.1668 110.476L90.346 112.665C90.4112 113.46 89.8067 114.153 89.0097 114.196L85.8856 114.364L68.0103 135.331L78.2498 104.015C79.3565 100.551 78.4574 96.7591 75.9131 94.1606Z" fill="#678D98"/>
<path d="M60.1072 94.1606L61.7738 92.3065L57.7707 88.2999L54.7145 91.0065C49.5864 96.2684 46.453 103.153 45.8534 110.476L45.6742 112.665C45.6091 113.46 46.2135 114.153 47.0106 114.196L50.1347 114.364L68.01 135.331L57.7704 104.015C56.6638 100.551 57.5629 96.7591 60.1072 94.1606Z" fill="#678D98"/>
<path d="M35.632 111.365C35.912 111.145 36.1979 110.92 36.4867 110.693L42.2307 120.761C42.8222 121.797 43.1332 122.971 43.1332 124.164V135.385L31.6352 135.41C30.7326 135.412 30 134.68 30 133.778V122.955C30 118.432 32.0765 114.16 35.632 111.365Z" fill="#678D98"/>
<path d="M38.2751 60.6933L35.4293 38.052C34.6562 31.9012 38.1711 26.0146 43.9525 23.7775C48.7388 17.6094 56.1075 14 63.9148 14H72.105C79.9124 14 87.281 17.6091 92.0671 23.7775C97.8485 26.0146 101.363 31.9012 100.59 38.052L97.7445 60.6933L97.0211 64.5254H39.8495L38.2751 60.6933Z" fill="#918291"/>
<path d="M47.3013 38.052C46.5282 31.9015 50.0431 26.0146 55.8245 23.7775C60.2324 18.0964 66.8313 14.5888 73.9456 14.0696C73.3353 14.0251 72.7216 14 72.1047 14H63.9145C56.1074 14 48.7385 17.6094 43.9524 23.7775C38.1713 26.0146 34.6564 31.9012 35.4293 38.052L38.2748 60.6933L39.8492 64.5254H51.721L50.1468 60.6933L47.3013 38.052Z" fill="#837484"/>
<path d="M92.556 72.0915H94.1819C97.4974 72.0915 100.252 69.5355 100.5 66.2293C100.776 62.5535 97.8677 59.4194 94.1819 59.4194H92.3644H90.3516V72.0915H92.556Z" fill="#FFBD86"/>
<path d="M43.6573 59.4194H42.0839C38.3978 59.4194 35.4898 62.5538 35.7657 66.2293C36.0137 69.5355 38.7684 72.0915 42.0839 72.0915H43.9539H47.4905V59.4194H43.6573Z" fill="#F6A96C"/>
<path d="M56.4094 44.0485C52.9924 41.9449 48.5312 42.8335 46.1808 46.0857L45.5981 46.8923C44.654 48.1986 44.146 49.7693 44.146 51.381V56.6668V71.1198C44.146 84.3677 54.8856 95.1073 68.1335 95.1073C81.3814 95.1073 92.121 84.3677 92.121 71.1198V56.6668V51.381C92.121 49.7693 91.613 48.1986 90.6689 46.8923L90.0606 46.0506C87.7209 42.813 83.2866 41.9156 79.872 43.9889L79.6567 44.1195C72.5082 48.4601 63.5312 48.4325 56.4094 44.0485Z" fill="#FFE5C2"/>
<path d="M100.388 111.365C100.108 111.145 99.8226 110.92 99.5338 110.693L93.7897 120.761C93.1982 121.797 92.8872 122.971 92.8872 124.164V135.385L104.385 135.41C105.288 135.412 106.02 134.68 106.02 133.778V122.955C106.02 118.432 103.944 114.16 100.388 111.365Z" fill="#678D98"/>
<path d="M53.9523 71.1201V56.6671V51.3813C53.9523 49.7696 54.4605 48.1991 55.4043 46.8928L55.987 46.0862C56.3945 45.5225 56.8664 45.0316 57.3842 44.6129C57.0553 44.4328 56.7287 44.2467 56.4072 44.0488C52.9902 41.9451 48.529 42.8338 46.1788 46.086L45.5961 46.8926C44.6521 48.1989 44.144 49.7696 44.144 51.3811V56.6669V71.1198C44.144 84.3678 54.8836 95.1073 68.1315 95.1073C69.8123 95.1073 71.4524 94.9337 73.0355 94.6047C62.14 92.3414 53.9523 82.6872 53.9523 71.1201Z" fill="#FED2A4"/>
<path d="M90.6682 46.893L90.0598 46.0513C87.7201 42.8137 83.2856 41.9163 79.8713 43.9897L79.656 44.1203C72.5075 48.4608 63.5305 48.4335 56.4086 44.0492C52.9916 41.9456 48.5305 42.8342 46.1803 46.0865L45.5976 46.893C44.6535 48.1994 44.1455 49.7701 44.1455 51.3815V56.6673V59.2909C44.1455 57.6792 44.6538 56.1085 45.5976 54.8022L46.1803 53.9956C48.5305 50.7434 52.9916 49.855 56.4086 51.9584C63.5305 56.3426 72.5075 56.37 79.656 52.0294L79.8713 51.8988C83.2856 49.8255 87.7201 50.7229 90.0598 53.9605L90.6682 54.8022C91.6122 56.1085 92.1203 57.6792 92.1203 59.2909V56.6673V51.3815C92.1203 49.7701 91.6122 48.1994 90.6682 46.893Z" fill="#FED2A4"/>
</svg>
