<svg width="209" height="214" viewBox="0 0 209 214" fill="none" xmlns="http://www.w3.org/2000/svg">
<path d="M17.5065 201.5H7.75652L5.89652 206H0.916523L10.2765 185H15.0765L24.4665 206H19.3665L17.5065 201.5ZM15.9765 197.81L12.6465 189.77L9.31652 197.81H15.9765ZM31.4453 190.22H35.5853V193.82H31.5653V206H26.8853V193.82H24.3953V190.22H26.8853V189.5C26.8853 187.66 27.4253 186.2 28.5053 185.12C29.6053 184.04 31.1453 183.5 33.1253 183.5C33.8253 183.5 34.4853 183.58 35.1053 183.74C35.7453 183.88 36.2753 184.09 36.6953 184.37L35.4653 187.76C34.9253 187.38 34.2953 187.19 33.5753 187.19C32.1553 187.19 31.4453 187.97 31.4453 189.53V190.22ZM43.0468 190.22H47.1868V193.82H43.1668V206H38.4868V193.82H35.9968V190.22H38.4868V189.5C38.4868 187.66 39.0268 186.2 40.1068 185.12C41.2068 184.04 42.7468 183.5 44.7268 183.5C45.4268 183.5 46.0868 183.58 46.7068 183.74C47.3468 183.88 47.8768 184.09 48.2968 184.37L47.0668 187.76C46.5268 187.38 45.8968 187.19 45.1768 187.19C43.7568 187.19 43.0468 187.97 43.0468 189.53V190.22ZM51.9268 189.86H56.6068V206H51.9268V189.86ZM54.2668 187.61C53.4068 187.61 52.7068 187.36 52.1668 186.86C51.6268 186.36 51.3568 185.74 51.3568 185C51.3568 184.26 51.6268 183.64 52.1668 183.14C52.7068 182.64 53.4068 182.39 54.2668 182.39C55.1268 182.39 55.8268 182.63 56.3668 183.11C56.9068 183.59 57.1768 184.19 57.1768 184.91C57.1768 185.69 56.9068 186.34 56.3668 186.86C55.8268 187.36 55.1268 187.61 54.2668 187.61ZM60.9442 183.74H65.6242V206H60.9442V183.74ZM69.9676 189.86H74.6476V206H69.9676V189.86ZM72.3076 187.61C71.4476 187.61 70.7476 187.36 70.2076 186.86C69.6676 186.36 69.3976 185.74 69.3976 185C69.3976 184.26 69.6676 183.64 70.2076 183.14C70.7476 182.64 71.4476 182.39 72.3076 182.39C73.1676 182.39 73.8676 182.63 74.4076 183.11C74.9476 183.59 75.2176 184.19 75.2176 184.91C75.2176 185.69 74.9476 186.34 74.4076 186.86C73.8676 187.36 73.1676 187.61 72.3076 187.61ZM85.5011 189.62C88.0011 189.62 89.9211 190.22 91.2611 191.42C92.6011 192.6 93.2711 194.39 93.2711 196.79V206H88.8911V203.99C88.0111 205.49 86.3711 206.24 83.9711 206.24C82.7311 206.24 81.6511 206.03 80.7311 205.61C79.8311 205.19 79.1411 204.61 78.6611 203.87C78.1811 203.13 77.9411 202.29 77.9411 201.35C77.9411 199.85 78.5011 198.67 79.6211 197.81C80.7611 196.95 82.5111 196.52 84.8711 196.52H88.5911C88.5911 195.5 88.2811 194.72 87.6611 194.18C87.0411 193.62 86.1111 193.34 84.8711 193.34C84.0111 193.34 83.1611 193.48 82.3211 193.76C81.5011 194.02 80.8011 194.38 80.2211 194.84L78.5411 191.57C79.4211 190.95 80.4711 190.47 81.6911 190.13C82.9311 189.79 84.2011 189.62 85.5011 189.62ZM85.1411 203.09C85.9411 203.09 86.6511 202.91 87.2711 202.55C87.8911 202.17 88.3311 201.62 88.5911 200.9V199.25H85.3811C83.4611 199.25 82.5011 199.88 82.5011 201.14C82.5011 201.74 82.7311 202.22 83.1911 202.58C83.6711 202.92 84.3211 203.09 85.1411 203.09ZM107.917 205.22C107.457 205.56 106.887 205.82 106.207 206C105.547 206.16 104.847 206.24 104.107 206.24C102.187 206.24 100.697 205.75 99.6367 204.77C98.5967 203.79 98.0767 202.35 98.0767 200.45V193.82H95.5867V190.22H98.0767V186.29H102.757V190.22H106.777V193.82H102.757V200.39C102.757 201.07 102.927 201.6 103.267 201.98C103.627 202.34 104.127 202.52 104.767 202.52C105.507 202.52 106.137 202.32 106.657 201.92L107.917 205.22ZM125.856 197.99C125.856 198.05 125.826 198.47 125.766 199.25H113.556C113.776 200.25 114.296 201.04 115.116 201.62C115.936 202.2 116.956 202.49 118.176 202.49C119.016 202.49 119.756 202.37 120.396 202.13C121.056 201.87 121.666 201.47 122.226 200.93L124.716 203.63C123.196 205.37 120.976 206.24 118.056 206.24C116.236 206.24 114.626 205.89 113.226 205.19C111.826 204.47 110.746 203.48 109.986 202.22C109.226 200.96 108.846 199.53 108.846 197.93C108.846 196.35 109.216 194.93 109.956 193.67C110.716 192.39 111.746 191.4 113.046 190.7C114.366 189.98 115.836 189.62 117.456 189.62C119.036 189.62 120.466 189.96 121.746 190.64C123.026 191.32 124.026 192.3 124.746 193.58C125.486 194.84 125.856 196.31 125.856 197.99ZM117.486 193.16C116.426 193.16 115.536 193.46 114.816 194.06C114.096 194.66 113.656 195.48 113.496 196.52H121.446C121.286 195.5 120.846 194.69 120.126 194.09C119.406 193.47 118.526 193.16 117.486 193.16ZM144.722 195.08C145.922 195.46 146.862 196.1 147.542 197C148.222 197.88 148.562 198.97 148.562 200.27C148.562 202.11 147.842 203.53 146.402 204.53C144.982 205.51 142.902 206 140.162 206H129.302V185H139.562C142.122 185 144.082 185.49 145.442 186.47C146.822 187.45 147.512 188.78 147.512 190.46C147.512 191.48 147.262 192.39 146.762 193.19C146.282 193.99 145.602 194.62 144.722 195.08ZM134.132 188.66V193.61H138.962C140.162 193.61 141.072 193.4 141.692 192.98C142.312 192.56 142.622 191.94 142.622 191.12C142.622 190.3 142.312 189.69 141.692 189.29C141.072 188.87 140.162 188.66 138.962 188.66H134.132ZM139.802 202.34C141.082 202.34 142.042 202.13 142.682 201.71C143.342 201.29 143.672 200.64 143.672 199.76C143.672 198.02 142.382 197.15 139.802 197.15H134.132V202.34H139.802ZM158.421 189.62C160.921 189.62 162.841 190.22 164.181 191.42C165.521 192.6 166.191 194.39 166.191 196.79V206H161.811V203.99C160.931 205.49 159.291 206.24 156.891 206.24C155.651 206.24 154.571 206.03 153.651 205.61C152.751 205.19 152.061 204.61 151.581 203.87C151.101 203.13 150.861 202.29 150.861 201.35C150.861 199.85 151.421 198.67 152.541 197.81C153.681 196.95 155.431 196.52 157.791 196.52H161.511C161.511 195.5 161.201 194.72 160.581 194.18C159.961 193.62 159.031 193.34 157.791 193.34C156.931 193.34 156.081 193.48 155.241 193.76C154.421 194.02 153.721 194.38 153.141 194.84L151.461 191.57C152.341 190.95 153.391 190.47 154.611 190.13C155.851 189.79 157.121 189.62 158.421 189.62ZM158.061 203.09C158.861 203.09 159.571 202.91 160.191 202.55C160.811 202.17 161.251 201.62 161.511 200.9V199.25H158.301C156.381 199.25 155.421 199.88 155.421 201.14C155.421 201.74 155.651 202.22 156.111 202.58C156.591 202.92 157.241 203.09 158.061 203.09ZM180.237 189.62C182.237 189.62 183.847 190.22 185.067 191.42C186.307 192.62 186.927 194.4 186.927 196.76V206H182.247V197.48C182.247 196.2 181.967 195.25 181.407 194.63C180.847 193.99 180.037 193.67 178.977 193.67C177.797 193.67 176.857 194.04 176.157 194.78C175.457 195.5 175.107 196.58 175.107 198.02V206H170.427V189.86H174.897V191.75C175.517 191.07 176.287 190.55 177.207 190.19C178.127 189.81 179.137 189.62 180.237 189.62ZM198.099 199.67L195.849 201.89V206H191.169V183.74H195.849V196.34L202.689 189.86H208.269L201.549 196.7L208.869 206H203.199L198.099 199.67Z" fill="white"/>
<path d="M31.1931 127.46L112.046 22.6229C112.151 23.5204 112.248 23.9511 112.248 24.3818C112.248 41.3968 112.258 58.407 112.277 75.4123C112.277 76.7152 111.861 77.1314 110.569 77.1061C106.892 77.0385 103.215 77.0385 99.5378 77.1061C98.2638 77.1278 97.7897 76.7442 97.8331 75.4268C97.9236 72.6871 97.8657 69.9401 97.8549 67.1931C97.8549 66.6177 97.8006 66.0459 97.7716 65.4704L97.3228 65.2822L82.3358 84.7209C83.2551 84.7788 83.816 84.8475 84.3806 84.8475C103.097 84.8475 121.813 84.8475 140.529 84.8475C147.456 84.8475 152.895 79.4803 152.87 72.7413C152.845 66.0024 147.409 60.722 140.456 60.7184C134.803 60.7184 129.15 60.6822 123.497 60.7438C122.201 60.7438 121.799 60.3601 121.828 59.0608C121.908 55.2752 121.875 51.4859 121.828 47.7002C121.828 46.7665 122.064 46.2706 123.113 46.2851C129.914 46.3792 136.747 46.0643 143.511 46.5964C156.305 47.6025 166.239 58.0294 167.104 70.8449C167.633 78.6442 165.215 85.423 159.819 91.1123C159.558 91.3838 159.334 91.6878 159.229 91.8108C160.959 94.3443 162.906 96.6207 164.227 99.2193C171.784 114.058 164.672 131.025 148.581 136.62C143.667 138.383 138.486 139.287 133.265 139.291C122.067 139.215 110.869 139.24 99.6753 139.291C98.2276 139.291 97.8078 138.929 97.815 137.456C97.8778 127.962 97.8778 118.466 97.815 108.969C97.815 107.453 98.2494 106.979 99.7658 107.019C103.385 107.12 107.004 107.087 110.623 107.019C111.832 107.001 112.266 107.406 112.252 108.629C112.198 112.972 112.27 117.315 112.209 121.637C112.19 122.968 112.57 123.446 113.971 123.446C122.863 123.392 131.756 123.446 140.644 123.41C143.868 123.413 146.961 122.139 149.246 119.866C151.532 117.594 152.825 114.509 152.841 111.286C152.841 104.608 147.412 99.2664 140.605 99.2664C118.045 99.2664 95.4855 99.2555 72.9259 99.2338C72.3377 99.1968 71.7502 99.3146 71.2218 99.5756C70.6934 99.8366 70.2427 100.232 69.9147 100.721C60.4494 113.099 50.9478 125.454 41.41 137.785C39.8683 139.783 38.2505 141.727 36.7485 143.75C36.1188 144.597 35.6085 144.669 34.7182 144.112C24.6677 137.992 18.2979 129.24 15.9672 117.692C13.6798 106.346 15.6595 95.4228 19.7022 84.7932C25.1888 70.3672 33.8713 57.9932 44.4502 46.8787C59.7557 30.7986 77.7105 18.5332 98.1372 9.89781C110.927 4.49799 124.177 0.980141 138.071 0.173062C148.183 -0.420484 158.165 0.422786 167.702 4.11074C182.312 9.7639 191.661 20.0134 194.44 35.67C195.924 44.0304 194.943 52.293 192.649 60.4108C189.695 70.8666 184.751 80.3597 178.581 89.2521C178.199 89.8632 177.691 90.3853 177.09 90.783C177.307 90.3849 177.506 89.9759 177.745 89.5923C183.123 80.9605 187.35 71.8583 189.189 61.768C191.205 50.7005 190.216 40.1035 183.706 30.5416C178.407 22.7568 170.861 18.1134 161.99 15.446C152.693 12.6484 143.196 12.272 133.634 13.4663C109.313 16.5028 88.1265 26.7886 68.9919 41.6706C56.6396 51.2868 46.0933 62.6149 38.1202 76.1796C32.4743 85.7885 28.4714 95.9765 27.5811 107.214C27.0699 113.246 27.8877 119.317 29.977 124.999C30.1833 125.563 30.4403 126.113 30.7009 126.664C30.8509 126.937 31.0152 127.203 31.1931 127.46Z" fill="white"/>
</svg>
