<svg width="172" height="18" viewBox="0 0 172 18" fill="none" xmlns="http://www.w3.org/2000/svg">
<path d="M13.856 14.2913H6.43941L5.06133 17.6539H0L7.74233 0.346215H12.6283L20.3957 17.6539H15.2341L13.856 14.2913ZM12.4028 10.6814L10.1477 5.14292L7.89267 10.6814H12.4028ZM21.8021 0.346215H26.7632V13.772H35.1319V17.6539H21.8021V0.346215ZM37.0951 0.346215H42.0562V13.772H50.4249V17.6539H37.0951V0.346215ZM73.1603 8.62918C74.1625 8.97534 74.9473 9.51929 75.5155 10.2611C76.0833 10.9863 76.3674 11.8682 76.3674 12.9067C76.3674 14.4232 75.7491 15.5935 74.5133 16.4176C73.277 17.2418 71.4895 17.6539 69.1513 17.6539H59.6801V0.346215H68.6502C70.8882 0.346215 72.592 0.758302 73.7616 1.58248C74.9307 2.39017 75.5155 3.48633 75.5155 4.87094C75.5155 5.69513 75.3066 6.43689 74.8891 7.09622C74.4882 7.73907 73.9119 8.25005 73.1603 8.62918ZM64.5911 3.88193V7.21984H67.9987C69.6689 7.21984 70.5043 6.65942 70.5043 5.53852C70.5043 4.43413 69.6689 3.88193 67.9987 3.88193H64.5911ZM68.7504 14.1182C70.4873 14.1182 71.3562 13.533 71.3562 12.3627C71.3562 11.1924 70.4873 10.6072 68.7504 10.6072H64.5911V14.1182H68.7504ZM86.6039 13.055H83.8978V17.6539H78.9367V0.346215H86.9546C88.5417 0.346215 89.9198 0.60995 91.0889 1.13742C92.2585 1.64841 93.1605 2.39017 93.7949 3.3627C94.4299 4.31874 94.7471 5.44788 94.7471 6.75006C94.7471 8.00279 94.4464 9.09896 93.8451 10.0385C93.2608 10.9616 92.4169 11.6869 91.3144 12.2143L95.0979 17.6539H89.786L86.6039 13.055ZM89.7359 6.75006C89.7359 5.94239 89.4773 5.316 88.9591 4.87094C88.4415 4.42589 87.6732 4.20336 86.654 4.20336H83.8978V9.27204H86.654C87.6732 9.27204 88.4415 9.05777 88.9591 8.62918C89.4773 8.18413 89.7359 7.55774 89.7359 6.75006ZM109.236 14.2913H101.819L100.441 17.6539H95.3795L103.122 0.346215H108.008L115.775 17.6539H110.614L109.236 14.2913ZM107.782 10.6814L105.527 5.14292L103.272 10.6814H107.782ZM133.869 0.346215V17.6539H129.785L122.043 8.43138V17.6539H117.182V0.346215H121.266L129.008 9.56874V0.346215H133.869ZM137.368 0.346215H145.662C147.583 0.346215 149.287 0.700608 150.773 1.4094C152.26 2.11819 153.413 3.12369 154.231 4.42589C155.05 5.72807 155.459 7.25283 155.459 9.00006C155.459 10.7473 155.05 12.2721 154.231 13.5742C153.413 14.8764 152.26 15.8819 150.773 16.5907C149.287 17.2995 147.583 17.6539 145.662 17.6539H137.368V0.346215ZM145.462 13.7473C146.965 13.7473 148.168 13.327 149.07 12.4863C149.988 11.6457 150.448 10.4836 150.448 9.00006C150.448 7.51655 149.988 6.35446 149.07 5.5138C148.168 4.67314 146.965 4.25281 145.462 4.25281H142.33V13.7473H145.462ZM164.233 18.0001C162.813 18.0001 161.435 17.827 160.098 17.4808C158.762 17.1347 157.676 16.6732 156.841 16.0962L158.47 12.4863C159.255 12.9973 160.166 13.4094 161.201 13.7226C162.237 14.0358 163.255 14.1924 164.258 14.1924C166.162 14.1924 167.114 13.7226 167.114 12.783C167.114 12.2885 166.838 11.9259 166.287 11.6951C165.753 11.4479 164.884 11.1924 163.681 10.9286C162.362 10.6484 161.259 10.3517 160.374 10.0385C159.489 9.70884 158.729 9.18961 158.094 8.48083C157.459 7.77206 157.142 6.81598 157.142 5.6127C157.142 4.55776 157.434 3.60995 158.019 2.76929C158.604 1.91215 159.472 1.23633 160.625 0.74182C161.794 0.247314 163.222 6.10352e-05 164.909 6.10352e-05C166.062 6.10352e-05 167.198 0.131929 168.317 0.395666C169.436 0.642919 170.421 1.0138 171.273 1.5083L169.745 5.14292C168.075 4.25281 166.455 3.80775 164.884 3.80775C163.899 3.80775 163.18 3.95611 162.729 4.25281C162.278 4.53303 162.053 4.90392 162.053 5.36545C162.053 5.82697 162.32 6.17312 162.855 6.40391C163.389 6.63469 164.25 6.87369 165.435 7.12094C166.772 7.40118 167.874 7.70609 168.743 8.03578C169.628 8.34895 170.388 8.85997 171.023 9.56874C171.674 10.2611 172 11.2089 172 12.4121C172 13.4506 171.708 14.3902 171.123 15.2308C170.539 16.0715 169.662 16.7473 168.492 17.2583C167.323 17.7528 165.903 18.0001 164.233 18.0001Z" fill="white"/>
</svg>
