<svg width="21" height="20" viewBox="0 0 21 20" fill="none" xmlns="http://www.w3.org/2000/svg">
<path d="M10.0369 0C4.52019 0 0 3.90722 0 8.81813V8.90416C0.0286768 11.5854 1.43384 14.0481 3.73157 15.6862L3.78176 15.7185L3.4233 18.4894C3.40071 18.6646 3.41296 18.8425 3.45935 19.0129C3.50574 19.1834 3.58535 19.343 3.6936 19.4825C3.80186 19.6221 3.93664 19.7389 4.09018 19.8262C4.24372 19.9135 4.413 19.9697 4.5883 19.9914C4.78283 20.0135 4.97987 19.9929 5.16562 19.931C5.35137 19.8691 5.52135 19.7674 5.66368 19.6329L8.01518 17.4534H8.05461C8.70881 17.5718 9.37208 17.633 10.0369 17.6363C15.5536 17.6363 20.0738 13.7183 20.0738 8.81813C20.0738 3.91797 15.5536 0 10.0369 0ZM10.0369 1.61307C14.6969 1.61307 18.4536 4.86431 18.4536 8.81813C18.4536 12.772 14.6969 16.0232 10.0369 16.0232C9.37363 16.0229 8.71202 15.9569 8.06178 15.826H7.99009L7.54918 15.7328L5.13316 17.9589L5.51671 14.9155L5.01845 14.6037L4.98619 14.5822C2.86768 13.2272 1.62024 11.1051 1.62024 8.81813C1.62024 4.86431 5.37691 1.61307 10.0369 1.61307Z" fill="white"/>
<path d="M4.94677 6.85019C4.88183 7.56012 4.96212 8.27585 5.18274 8.95375C5.40337 9.63165 5.75971 10.2575 6.23006 10.7933C6.49707 11.1098 6.79353 11.4002 7.11545 11.6607L7.16564 11.7037L7.21582 11.7432L5.99347 13.2989L5.93612 13.2523H5.91103C5.47721 12.9038 5.0786 12.5136 4.72094 12.0873C4.084 11.3542 3.60143 10.5002 3.3021 9.57632C3.00277 8.65246 2.89282 7.67772 2.97882 6.71039L4.94677 6.85019Z" fill="white"/>
</svg>
